"reg_number","id_vehiclestatic","timestamp","materialzed_view_fuel","materialzed_view_distance","materialzed_view_acceleration","materialzed_view_speed","materialzed_view_ascent","analytics_speed_mean","analytics_speed_mean_run","analytics_acceleration_mean","analytics_acceleration_mean_run","analytics_elevation_mean_positive"
"LD 5001",956,"2020-06-23 00:00:00+00","208","713","1.51","23.1626282068041","7349.613",8.745700048399629,23.030312954718195,0.2528689784037559,0.2549705037628195,2.706362170385714
"LD 5001",956,"2020-06-24 00:00:00+00","207","718","1.25","21.5516868727757","3641.291",8.636461666021203,21.274538971871863,0.2863656951248513,0.2878406255370661,2.4231410360458163
"LD 5001",956,"2020-06-25 00:00:00+00","137","280","1.33","16.9804409198368","3096.63",3.3224163136532683,16.765877926616547,0.21817708748615727,0.21914460704281435,3.281027468618415
"LD 5001",956,"2020-06-26 00:00:00+00","138","369","1.52","17.612092394503","3667.394",4.519553023534967,17.364487061555938,0.26730265084294585,0.2675269613224845,2.9513494911578517
"LD 5001",956,"2020-06-29 00:00:00+00","211","538","1.25","19.1464207915461","5206.253",6.407562500168113,19.09689398563606,0.23917855962085308,0.23894966916395743,2.153984207332473
"LD 5001",956,"2020-06-30 00:00:00+00","216","658","1.58","20.5013778826331","4422.53",8.076543393727793,20.2187102624306,0.21642535354037265,0.21719538285414677,2.402741118027142
"LD 5001",956,"2020-07-01 00:00:00+00","280","754","1.59","21.4488187372127","6390.83200000001",8.735649141580428,21.268164783057607,0.2514312462670873,0.2516811100467786,2.71494097438584
"LD 5001",956,"2020-07-02 00:00:00+00","207","711","1.26","20.7931737150673","3660.446",8.686359806941034,20.866842055388055,0.2959098507319415,0.29658853598785545,2.558125784469972
"LD 5001",956,"2020-07-03 00:00:00+00","166","647","1.29","22.5259213885042","5234.35900000001",7.826649687570013,22.510945538640108,0.2978276481682989,0.29788670580078636,2.7009136426276172
"LD 5001",956,"2020-07-05 00:00:00+00","106","376","0.91","23.9334413690235","2252.762",4.605389248554279,21.931988066982676,0.3417479045643154,0.3451875141242938,2.9941235204208367
"LD 5001",956,"2020-07-06 00:00:00+00","211","649","1.45","20.9108920988412","5296.246",7.625640168335463,20.60326842613291,0.271370023966447,0.2722767762997872,2.878421481101448
"LD 5001",956,"2020-07-07 00:00:00+00","211","657","1.44","22.8317852391245","3081.486",8.09356054662809,23.316291374070172,0.24386555054432352,0.2446918620971621,2.68916516562353
"LD 5001",956,"2020-07-08 00:00:00+00","176","649","1.27","21.6821732845353","5338.608",7.824215632795744,21.62859987186416,0.2584201486643438,0.25899591235632186,2.500649987103647
"LD 5001",956,"2020-07-09 00:00:00+00","181","646","1.31","19.7608329788424","4875.07900000001",7.644477079335024,19.599665500620926,0.31283089999999997,0.3147770269220376,2.8012598689696393
"LD 5001",956,"2020-07-10 00:00:00+00","102","361","1.66","18.3937830647377","2909.42",4.4714176123159906,18.21692574419064,0.2717557850045167,0.2722644409665144,3.0877693513590407
"LD 5001",956,"2020-07-13 00:00:00+00","253","706","1.41","22.3081791058867","4441.328",8.275239899904209,22.140400726915278,0.24066259557867356,0.241107098287784,2.151489365699245
"LD 5001",956,"2020-07-15 00:00:00+00","228","628","1.45","21.3789533687307","5259.89399999999",7.4535837082850485,21.164995682944486,0.23683646764926305,0.23760398502253025,2.3688932356796144
"LD 5001",956,"2020-07-16 00:00:00+00","235","591","1.40","21.757505172923","4786.802",7.16193305796519,21.698134824269506,0.22254809275053306,0.2220278927951755,3.063967509291741
"LD 5001",956,"2020-07-17 00:00:00+00","155","537","1.26","19.554812162894","2822.49",6.440015583946732,19.262000269428242,0.28048850836431233,0.2796678587535995,1.596419421273631
"LD 5001",956,"2020-07-18 00:00:00+00","1","1","2.18","3.63889190852642","6.5230000000002",0.0074592446389549275,4.161329206708816,0.18518537634408602,0.19046131813865147,3.9975331944623633
"LD 5001",956,"2020-07-19 00:00:00+00","91","366","1.02","24.2978667384667","2056.806",4.533515104488008,23.91029865331482,0.3349666651583711,0.33522661363636364,2.841389022619747
"LD 5001",956,"2020-07-20 00:00:00+00","143","545","1.46","20.1009967150762","4005.55",6.400007865030022,19.936529184254326,0.27791223344610927,0.2794773049284254,2.8963144167203816
"LD 5001",956,"2020-07-21 00:00:00+00","246","692","1.45","21.514109195936","4416.458",8.156196853045065,21.39252716261942,0.26068483666751074,0.2613472633005031,2.4070855044923145
"LD 5001",956,"2020-07-22 00:00:00+00","221","649","1.22","21.9498123006587","6518.07100000001",7.978526272897172,21.567268168473685,0.24208982516556293,0.24217999451886585,2.488096689462699
"LD 5001",956,"2020-07-23 00:00:00+00","183","617","1.45","18.5500356051511","3984.91699999999",7.418208844958148,18.652501670461508,0.2793847436008677,0.28052668663998576,1.9044336435509883
"LD 5001",956,"2020-07-24 00:00:00+00","136","469","1.52","20.4551030160604","2720.347",5.508834419076411,19.87147196376353,0.23676167107615306,0.23673205328337846,2.8319545189006474
"LD 5001",956,"2020-07-26 00:00:00+00","128","358","1.13","23.2401858209887","3635.746",4.17919714234599,23.14727329358439,0.22618696836982974,0.226576661984712,2.9399026034866447
"LD 5001",956,"2020-07-27 00:00:00+00","186","618","1.49","21.4259531319834","3717.249",7.3861188761601335,21.343068017044605,0.246941161634103,0.24774526824476478,2.6396466795151916
"LD 5001",956,"2020-07-28 00:00:00+00","205","645","1.37","22.0546720297594","4431.348",7.770642193603959,21.909864340666996,0.26531348778998776,0.2668643733962414,2.7895764587389786
"LD 5001",956,"2020-07-29 00:00:00+00","226","715","1.43","21.2225513878752","5292.377",8.443584591219222,21.1601821903021,0.2654942760879737,0.26683358597526485,1.9427218698333895
"LD 5001",956,"2020-07-30 00:00:00+00","236","733","1.17","21.9598427864679","5481.805",8.779278309118526,21.948462052268656,0.2728752163388805,0.2732629360546886,2.360227451644488
"LD 5001",956,"2020-07-31 00:00:00+00","226","689","1.30","22.1226511056295","6701.334",8.425376288299361,22.08428649325553,0.22724639318479684,0.227806945864529,2.44358766759847
"LD 5001",956,"2020-08-02 00:00:00+00","1","1","1.02","1.94444599747658","3.80400000000009",0.0053195794446000075,2.0228354338842975,NULL,NULL,3.9902049256354917
"LD 5001",956,"2020-08-03 00:00:00+00","170","667","1.40","23.5039736895964","4997.58800000001",7.910968559731847,23.6656744781746,0.251498177593361,0.25438252417519913,2.7395368342985242
"LD 5001",956,"2020-08-04 00:00:00+00","129","514","1.26","22.7014788572145","2728.095",6.167653964385113,22.519458441313983,0.2970318989169675,0.29937270710694136,2.886008348628006
"LD 5001",956,"2020-08-05 00:00:00+00","237","788","1.24","22.059581444028","7335.05499999999",9.799970466776703,21.944730184362943,0.2493660010738255,0.2513276785103618,2.5409962242663804
"LD 5001",956,"2020-08-06 00:00:00+00","219","744","1.34","21.1674742185083","4079.951",8.919537654107772,21.250012239877055,0.26352544946126216,0.2668123319200761,2.3241646233801845
"LD 5001",956,"2020-08-07 00:00:00+00","165","580","1.44","20.5137672959575","3402.937",6.95413181754458,20.44634997007931,0.2783776304295656,0.28004209420015447,2.675080421831518
"LD 5001",956,"2020-08-08 00:00:00+00","110","326","1.14","23.6314009673375","3340.821",3.8592924946664446,23.561904396383145,0.2392584780157836,0.24164500363108207,3.3596174113356128
"LD 5001",956,"2020-08-09 00:00:00+00","2","1","0.33","1.59722349792719","5.40700000000021",0.0160905442456711,2.191730361551316,NULL,NULL,3.9326359045826105
"LD 5001",956,"2020-08-10 00:00:00+00","115","411","1.44","19.5676628087961","2775.405",5.07263888456421,19.515700599748946,0.2690090063885757,0.2694856639510622,2.9551444790405133
"LD 5001",956,"2020-08-11 00:00:00+00","187","476","1.39","19.0183605430096","3626.779",5.751317428729511,18.51984716562092,0.25035628842438085,0.25060462017219237,2.854971265112291
"LD 5001",956,"2020-08-12 00:00:00+00","118","391","1.44","18.6551282587531","3530.75100000001",4.6210389646280055,18.42955144502401,0.255141389081225,0.2559787674536492,3.0495865445688355
"LD 5001",956,"2020-08-13 00:00:00+00","105","255","1.80","17.7258422515377","2566.558",2.978244583823062,17.41090012739121,0.24995161730545878,0.24986706025267252,3.307206592730083
"LD 5001",956,"2020-08-14 00:00:00+00","49","110","1.76","15.4555931016633","968.029",1.3583223559756972,14.493948738354396,0.25442280500894454,0.25419544221782636,3.501171539882682
"LD 5003",958,"2020-06-23 00:00:00+00","229","721","1.55","20.8042096889744","7081.604",8.686467158118258,20.48197636073619,0.26778564413039985,0.26847423191719366,2.26207238226123
"LD 5003",958,"2020-06-24 00:00:00+00","199","758","1.61","21.9610172741461","3721.586",8.7875183233031,21.717522846498923,0.2539878643564356,0.25472211926484967,2.549410131666961
"LD 5003",958,"2020-06-25 00:00:00+00","148","505","1.19","20.070107780309","5109.434",6.296300490828099,19.78616127142383,0.2818261195044936,0.28270410039408395,2.9681499319191027
"LD 5003",958,"2020-06-26 00:00:00+00","134","357","1.73","19.6595215894101","3379.415",4.296567053550994,19.491774410198285,0.267143424382297,0.26701693544633076,3.232686849870324
"LD 5003",958,"2020-06-28 00:00:00+00","190","533","1.12","23.102651669579","4576.595",6.18602519846847,23.016753060570377,0.20340083598794667,0.20314824910239843,2.7509052905100577
"LD 5003",958,"2020-06-29 00:00:00+00","214","696","1.52","22.0916022996395","3765.125",8.095012124208973,22.146770589671995,0.23305045476772615,0.23292035685295492,2.7163119168695804
"LD 5003",958,"2020-06-30 00:00:00+00","211","774","1.25","22.0933338920356","7002.55",9.352732342086407,21.92726724298217,0.2565767985462098,0.25729017675030325,2.309150398704403
"LD 5003",958,"2020-07-01 00:00:00+00","165","549","1.45","19.5914174078618","3130.328",6.466768987689709,19.49759930984634,0.26741181107871725,0.26920827833255984,2.4931961956801247
"LD 5003",958,"2020-07-02 00:00:00+00","225","613","1.20","19.1600293273421","5682.67800000001",7.441011818820827,18.940593197145844,0.2401576319620789,0.24141351725368437,2.5246707043409704
"LD 5003",958,"2020-07-03 00:00:00+00","58","192","1.52","19.6433790400743","2063.192",2.3184617688749483,19.425770528847988,0.2652585567338282,0.2665052340202842,3.4648504531272035
"LD 5003",958,"2020-07-04 00:00:00+00","2","2","1.05","1.7777792096138","10.3909999999998",0.006269413973213216,1.565197026742729,NULL,NULL,3.9594211004793403
"LD 5003",958,"2020-07-05 00:00:00+00","204","563","1.21","23.6405911007025","3206.959",6.675262867114301,23.653156840810354,0.22835628780743067,0.22858946946631672,2.9978103252336803
"LD 5003",958,"2020-07-06 00:00:00+00","204","548","1.39","21.1498719109702","5072.575",6.335335262408372,21.102342866498983,0.2306863742844562,0.23098139723400218,2.8744350963864527
"LD 5003",958,"2020-07-07 00:00:00+00","180","689","1.31","22.1525690922908","3737.675",7.738554779163244,20.044587450290017,0.27071137105263154,0.27256345279005906,2.2452889790119244
"LD 5003",958,"2020-07-08 00:00:00+00","172","530","1.62","19.3618900786151","3736.366",6.301370782037765,19.428330216922223,0.29998340551698255,0.30000066525081526,2.514603004956374
"LD 5003",958,"2020-07-09 00:00:00+00","232","699","1.49","20.691019480657","5923.709",8.264950055708946,20.668880340252088,0.23521156234817817,0.23538453853151584,1.9316364680973601
"LD 5003",958,"2020-07-10 00:00:00+00","19","60","1.24","18.3839773438834","547.992",0.7082754526864088,17.2291649196674,0.22038983680555557,0.220987484357813,3.7652695534253664
"LD 5003",958,"2020-07-12 00:00:00+00","142","628","1.52","23.9942026562209","3057.212",7.674857636499828,23.976750630070466,0.2655791180237877,0.2657783674172794,2.721668078038882
"LD 5003",958,"2020-07-13 00:00:00+00","83","358","1.55","21.5383167285472","2278.936",4.2219505744049375,21.37297439118616,0.24209609694619488,0.24171577655161636,2.9490138537233808
"LD 5003",958,"2020-07-15 00:00:00+00","116","371","1.84","14.7469603840563","1753.442",4.368608724964688,14.384841309302015,0.2657985165927512,0.267037915871779,2.8229961238077714
"LD 5003",958,"2020-07-16 00:00:00+00","205","762","1.42","22.8334303076915","3900.782",9.161099551029539,22.736319332542774,0.2219092173300458,0.2219180891376451,1.5231759841022203
"LD 5003",958,"2020-07-17 00:00:00+00","154","533","1.44","19.6341185270179","2504.692",6.336705740105668,19.317308788317,0.2802569270130901,0.2811164231426094,2.1497679105320406
"LD 5003",958,"2020-07-18 00:00:00+00","1","1","0.56","0.833334006369114","5.40499999999986",0.0028145283752422424,1.0559727194088855,NULL,NULL,3.9646038503594716
"LD 5003",958,"2020-07-19 00:00:00+00","224","643","0.99","23.0005822356851","5069.26599999999",7.7002627948213895,22.95116277031059,0.19496405817174514,0.19526332244483158,2.7422835780598422
"LD 5003",958,"2020-07-20 00:00:00+00","161","458","1.54","17.7035725845071","3753.671",5.381360526761598,17.82151389911309,0.2627082328812438,0.2629083440454409,2.7795255180219622
"LD 5003",958,"2020-07-21 00:00:00+00","131","480","1.48","22.3303546342488","3912.67",5.677117577886698,22.355743259979914,0.3063009936088624,0.3070774300085617,2.947764193662233
"LD 5003",958,"2020-07-22 00:00:00+00","139","526","1.32","21.3995012781344","3743.264",6.500546303711924,21.207001894654137,0.2783033593947037,0.27900447598619377,2.837811320616251
"LD 5003",958,"2020-07-23 00:00:00+00","179","617","1.43","21.5309356842591","3505.107",7.167956362211918,21.427387070765214,0.266718467942089,0.26722525275595826,2.411701315823072
"LD 5003",958,"2020-07-24 00:00:00+00","33","93","1.44","15.3621413769366","718.752",1.1473687825958048,15.344104637936523,0.24640791135397694,0.24794241367831893,3.6579711841074563
"LD 5003",958,"2020-08-01 00:00:00+00","1","1","0.33","2.06349375844002","3.76599999999985",0.0040574770991455445,3.7695020249999995,0.152778,0.152778,3.9975756064248573
"LD 5003",958,"2020-08-05 00:00:00+00","2","2","1.53","2.94872029584188","14.141",0.018664264635085102,2.7763787942877873,0.2650359816513762,0.2714477816326531,3.904514859321912
"LD 5003",958,"2020-08-10 00:00:00+00","174","694","1.27","22.4683363944171","5181.715",8.510651453514459,22.315137125497152,0.24569707920405776,0.24574822688993345,2.6330397437831987
"LD 5003",958,"2020-08-11 00:00:00+00","211","793","1.24","22.7789336972118","5489.569",9.32942096412344,22.87568323827109,0.28485124776324844,0.28557000023510976,2.1780427470457044
"LD 5003",958,"2020-08-12 00:00:00+00","91","288","1.13","21.5523426571211","2766.87",3.4392216510401017,21.33076387692545,0.2478434646581692,0.24803419391754797,3.1845670495826655
"LD 5003",958,"2020-08-13 00:00:00+00","209","778","1.49","21.7523036661922","7784.21600000001",9.232822499689597,21.902707874844456,0.2709236285525446,0.2718001531920997,2.2587768485039006
"LD 5003",958,"2020-08-14 00:00:00+00","53","164","1.76","16.1072659291971","1572.729",1.9710493779076788,16.00189365868767,0.27521437061646364,0.2754965160665423,3.5236508022286595
"LD 5003",958,"2020-08-16 00:00:00+00","170","574","1.01","23.6369696109332","2901.574",6.730613581458655,23.609246899813048,0.21009250372578242,0.21009250372578242,2.5032108060705807
"LD 5003",958,"2020-08-17 00:00:00+00","36","72","2.20","15.8186226864164","401.642",0.8318017109948991,14.964796973396593,0.2516521908713693,0.25149728410825817,3.731328443499229
"LD 5003",958,"2020-08-18 00:00:00+00","225","747","1.29","20.7392578450804","4380.962",9.252271846820484,20.73183550299687,0.2756180062208398,0.2769386412444677,2.171820615679259
"LD 5003",958,"2020-08-19 00:00:00+00","94","369","1.29","22.493607530313","2176.22",4.388845759683719,22.496494843906486,0.2743612504854369,0.27410631449013156,2.8472394952254865
"LD 5003",958,"2020-08-24 00:00:00+00","195","765","1.48","23.9491657446437","3921.09400000001",9.219007399493346,23.754827215522667,0.25719389581804847,0.25786979418074557,2.5830819952449815
"LD 7948",960,"2020-06-23 00:00:00+00","139","659","1.71","21.8612732915518","4895.05099999999",7.932152576471157,21.847741060594966,0.28128172810091095,0.2820211534926254,2.916100158124284
"LD 7948",960,"2020-06-24 00:00:00+00","126","616","1.55","20.1093954657115","4630.334",7.274104318731261,19.819777666275574,0.2673101337659097,0.2674360323827442,2.68854125705138
"LD 7948",960,"2020-06-25 00:00:00+00","144","570","1.60","20.7683007264611","3816.984",7.085537257950973,20.56774791423189,0.26188399767644494,0.2628605486641191,2.6351035858770193
"LD 7948",960,"2020-06-26 00:00:00+00","36","90","1.75","13.4222876202003","891.733",1.0615608070938078,11.854725003804557,0.22859505294117646,0.22879427822630705,3.5099202144214146
"LD 7948",960,"2020-06-28 00:00:00+00","125","348","1.45","22.3076455174915","3647.249",4.216774804228165,22.353971998904218,0.2213283264367816,0.22149854162812208,3.367322498829536
"LD 7948",960,"2020-06-29 00:00:00+00","189","626","1.27","19.6935281986411","5109.669",7.634438165230079,19.731667507566062,0.24796719669788853,0.24913508067972204,2.2691671914303466
"LD 7948",960,"2020-06-30 00:00:00+00","209","621","1.46","20.8164122618522","5873.09600000001",7.427407915419954,20.22247086810387,0.22910687150837988,0.22926622944050382,2.7438323621812075
"LD 7948",960,"2020-07-01 00:00:00+00","205","726","1.30","21.5527103948091","3827.694",8.58793132536266,21.414587626501447,0.23217273631840796,0.23292450306532425,2.4669565189356075
"LD 7948",960,"2020-07-02 00:00:00+00","185","643","1.43","22.4545913327465","3179.788",7.839128317853684,21.77923591079105,0.23779935673541022,0.23868199848599114,2.2181692313554695
"LD 7948",960,"2020-07-03 00:00:00+00","167","559","1.63","21.4345372212745","4404.09299999999",6.669041281323051,21.139817828665002,0.2169217259191735,0.21699740751339056,2.9860957342178915
"LD 7948",960,"2020-07-04 00:00:00+00","1","1","0.69","1.66666799783707","2.90299999999985",0.004091665769226167,1.4335404561021714,0.16025653846153845,0.16754872023809522,3.989188581184943
"LD 7948",960,"2020-07-05 00:00:00+00","120","366","1.21","23.9031823100436","2050.661",4.469961293854597,23.460351461167214,0.2108340387811634,0.21036773634942804,3.329849155486153
"LD 7948",960,"2020-07-06 00:00:00+00","215","650","1.38","21.5690901700308","4905.393",7.894133770505021,21.50186808482775,0.22094621548662086,0.22217946488561385,2.604376214829939
"LD 7948",960,"2020-07-07 00:00:00+00","122","501","1.81","20.5787018587385","3367.777",5.134728061440398,17.276454314526557,0.25274964799253036,0.2527942775680228,3.144573912458976
"LD 7948",960,"2020-07-08 00:00:00+00","142","645","1.55","20.991610561243","4034.852",7.615455023794242,20.83928887813802,0.2769375018905974,0.278481445823617,2.4429539076704527
"LD 7948",960,"2020-07-09 00:00:00+00","202","669","1.90","20.0434393112917","5671.587",8.252475255132474,19.9314783102975,0.22678337351360153,0.22722897578838053,2.4016735023240874
"LD 7948",960,"2020-07-10 00:00:00+00","102","376","1.41","19.355970481666","3736.87",4.340204330051952,18.749753988892245,0.2645612819250752,0.2660277840927158,3.2208931369575797
"LD 7948",960,"2020-07-13 00:00:00+00","163","607","1.44","21.1355564457455","3579.536",7.3847044294575905,20.519102298765407,0.2513510364741641,0.25214904965944274,2.5038870826784922
"LD 7948",960,"2020-07-15 00:00:00+00","177","684","1.82","20.4678595574521","4678.43",8.188327733735724,20.257448568495345,0.28004555296404277,0.2823791670109575,2.305521367122729
"LD 7948",960,"2020-07-16 00:00:00+00","139","627","1.43","20.9154039445284","3894.305",7.797104159376169,20.05593587525118,0.26264433118279573,0.26351036720006216,2.0308324413024472
"LD 7948",960,"2020-07-17 00:00:00+00","155","624","1.52","21.3356952618856","4027.318",7.492198510774634,21.459856902291982,0.26928759999999996,0.27088053501808734,2.4460580679120483
"LD 7948",960,"2020-07-18 00:00:00+00","1","1","1.32","2.26190652166094","7.66899999999981",0.011147564429786826,3.8048778515912383,0.21953419354838716,0.2195931914560063,3.9825962517961893
"LD 7948",960,"2020-07-20 00:00:00+00","148","617","1.47","21.388905983451","4507.67900000001",7.397039183240129,21.082002418908303,0.25391682582938385,0.2554206643319593,2.364632548355036
"LD 7948",960,"2020-07-21 00:00:00+00","151","638","1.47","20.7923780522929","4646.25700000001",7.621439976143141,20.52682613288658,0.2423704802699896,0.24224034964552887,2.812419096448617
"LD 7948",960,"2020-07-22 00:00:00+00","165","650","1.63","21.7188946007278","5552.826",7.854360589756709,21.588765619389292,0.28681467906016006,0.2879438714690003,2.8268012750988105
"LD 7948",960,"2020-07-23 00:00:00+00","125","522","1.68","19.502759062967","2510.777",6.291273969072289,18.28251192818918,0.2971989223643582,0.2989862776077098,2.9658077775910625
"LD 7948",960,"2020-07-24 00:00:00+00","29","111","1.98","17.0217010462507","1065.162",1.3379416664723882,15.806577498309888,0.2433186174242424,0.24500323766951748,3.6911319610119664
"LD 7948",960,"2020-07-26 00:00:00+00","95","350","1.21","22.4446302179363","3481.656",4.191712183913424,21.96592481242201,0.28953645629466734,0.28979580709278735,3.4500100263014546
"LD 7948",960,"2020-07-27 00:00:00+00","144","551","1.47","19.6215802679875","5353.298",6.439566400293858,19.448793682225006,0.27166797132757264,0.2730154089991501,2.9917992179500867
"LD 7948",960,"2020-07-28 00:00:00+00","150","584","1.65","20.939606317043","3739.63899999999",7.244789629476634,20.81496774992537,0.2449261982825917,0.24613547569006902,2.8858678660698174
"LD 7948",960,"2020-07-29 00:00:00+00","78","239","1.60","14.0723838664923","1446.411",2.805721141597855,13.483647321440676,0.23695900865704775,0.23955939430453482,3.344589844518143
"LD 7948",960,"2020-07-30 00:00:00+00","103","373","1.38","19.6349918085133","2804.201",4.474529539691921,19.471264120235947,0.2482687365951743,0.24938650528119868,2.56175361057039
"LD 7948",960,"2020-07-31 00:00:00+00","99","320","1.30","19.4506809263116","2571.283",3.9081012209845483,19.433908501782106,0.25636198185941045,0.25684265362737635,3.1748891179294128
"LD 7948",960,"2020-08-24 00:00:00+00","180","526","1.50","18.6880320107957","5224.721",6.337348639985946,18.178483893163143,0.25330671028774143,0.2549360229780121,2.772235406729407
"LD 7949",961,"2020-06-23 00:00:00+00","210","679","1.46","21.4449330673953","6351.08200000001",8.24695518860299,21.051559854418954,0.2322087021873247,0.2326392448810155,2.5224401575610886
"LD 7949",961,"2020-06-24 00:00:00+00","216","771","1.48","21.9666343086637","6493.13400000001",9.187408325808192,21.80933940136401,0.2547244699006429,0.2548211395105237,2.1236519258859294
"LD 7949",961,"2020-06-25 00:00:00+00","150","607","1.49","18.7716169584559","3221.22100000001",7.287408191539435,18.12638588377795,0.26317593251833743,0.26383212904606584,2.2781014393319055
"LD 7949",961,"2020-06-26 00:00:00+00","180","745","1.42","22.9948729123836","4641.05299999999",9.026662726844124,22.94830347680523,0.24506210236653828,0.24575414543805804,2.1499604128449827
"LD 7949",961,"2020-06-27 00:00:00+00","27","110","1.46","19.0601369667543","1207.653",1.3545916790118864,18.758629358331074,0.2641580129032258,0.26373946701164297,3.7311845796965044
"LD 7949",961,"2020-06-29 00:00:00+00","89","366","1.73","15.9192390888624","1573.661",4.234332179473074,15.661010601732341,0.2703175015060241,0.2712667859719119,3.0193874562004464
"LD 7949",961,"2020-06-30 00:00:00+00","257","779","1.51","22.3308486690258","4883.981",9.476544529024054,22.264145751552206,0.22502651277316096,0.2248848399088944,2.5562205537197524
"LD 7949",961,"2020-07-01 00:00:00+00","216","648","1.46","21.9137127133777","5055.557",7.740923323140903,21.927472715123386,0.22546564692674714,0.22620950560532388,2.612647687004378
"LD 7949",961,"2020-07-02 00:00:00+00","239","801","1.36","22.9102921125072","4472.1",9.715582576728869,22.544362562786038,0.23834621195916383,0.23970852015150937,1.9852686036970868
"LD 7949",961,"2020-07-03 00:00:00+00","193","651","1.42","21.1777547646561","3904.158",7.663067908873214,21.001853467366722,0.2233286745488488,0.22427935763977805,2.6519358435638694
"LD 7949",961,"2020-07-06 00:00:00+00","154","436","1.44","20.4011593989581","3608.643",5.208779527014696,19.727795533083903,0.22724762627930012,0.22705668639478338,2.8584241135201567
"LD 7949",961,"2020-07-07 00:00:00+00","197","620","1.48","20.2651107256314","4839.62799999999",7.746678736795388,18.254995573607697,0.24346791108865873,0.24353935574712643,2.0113713199652685
"LD 7949",961,"2020-07-08 00:00:00+00","222","614","1.42","20.3783286674626","4962.06600000001",7.384965791271003,20.051250294997903,0.23178253971202972,0.23243792774243954,2.6759999395622383
"LD 7949",961,"2020-07-09 00:00:00+00","129","348","1.22","21.3042938624902","3102.854",4.1994928453020535,21.253403033332457,0.21923275635276532,0.21918970908900084,3.1204415100597247
"LD 7949",961,"2020-07-10 00:00:00+00","178","798","1.59","22.5549276820076","5305.698",9.553810211711657,22.47148550908084,0.2926687045546151,0.2934924390973355,2.2794617975220692
"LD 7949",961,"2020-07-11 00:00:00+00","23","86","1.76","19.5091752263594","1001.512",1.050250970137919,19.76005892375682,0.29491957924263673,0.2951305234891407,3.7480772436633134
"LD 7949",961,"2020-07-13 00:00:00+00","194","610","1.58","20.7544152006151","5139.73000000001",7.350452971678169,19.926300935260272,0.25174108453133986,0.25343763939274644,2.2646413145576205
"LD 7949",961,"2020-07-15 00:00:00+00","146","606","1.63","20.5815158895568","2814.231",7.039521855669859,20.500539543144605,0.27397398103932585,0.27466178019819826,2.2152778017564674
"LD 7949",961,"2020-07-16 00:00:00+00","184","745","1.57","21.5921827609293","4431.80099999999",9.33962897059046,21.43994274188804,0.2883792605042017,0.28986444809754697,1.4122994078327802
"LD 7949",961,"2020-07-17 00:00:00+00","125","503","1.68","20.3626463544549","3959.961",5.976424742971117,20.298313309279056,0.25887877534523407,0.25897415131999085,2.807635377794563
"LD 7949",961,"2020-07-18 00:00:00+00","1","1","0.30","1.06481567025185","6.6189999999998",0.004525463917895719,2.0957873277318018,NULL,NULL,3.9914717187833464
"LD 7949",961,"2020-07-19 00:00:00+00","133","350","0.89","22.0681968853101","3202.56",4.116889441295833,21.142687513517387,0.18742467218332273,0.18746877634099618,2.9672610946227773
"LD 7949",961,"2020-07-20 00:00:00+00","240","752","1.41","21.8086790751508","4087.108",8.861600093402167,21.640391297137697,0.1915183650329188,0.1908254075819167,2.360130676419825
"LD 7949",961,"2020-07-21 00:00:00+00","181","758","1.29","22.3380239390141","4260.049",9.099827565020847,22.101807746282244,0.26294500566343043,0.2658920038701885,2.0256954174867765
"LD 7949",961,"2020-07-22 00:00:00+00","121","521","1.38","21.9135773806166","2770.77",6.306477161877604,21.45920197169491,0.2501448953102795,0.25109435755978,2.6992961255295405
"LD 7949",961,"2020-07-23 00:00:00+00","142","460","1.30","20.0804203825109","3806.075",5.5153555459593875,19.58877241557941,0.2560882200532387,0.2565255526194761,2.6158777466277057
"LD 7949",961,"2020-07-24 00:00:00+00","116","349","1.64","19.4762963423422","2462.782",4.088436067844589,19.082489429268595,0.2417302336541653,0.24232024926216114,2.8412752914402404
"LD 7949",961,"2020-07-27 00:00:00+00","143","571","1.46","20.5853792494631","2789.702",6.619637989609474,19.77777883619698,0.26876564383561646,0.2698640857827562,2.6907253231078356
"LD 7949",961,"2020-07-28 00:00:00+00","162","635","1.30","21.6157877492344","3319.674",7.623253160276341,21.44918778560786,0.28453182039215685,0.28452109991138375,1.8799909322057198
"LD 7949",961,"2020-07-29 00:00:00+00","197","749","1.40","22.4088498275597","5139.699",9.283097190121328,22.18146449451059,0.2846791852393131,0.2844051903542026,2.027647506196574
"LD 7949",961,"2020-07-30 00:00:00+00","119","532","1.76","19.53908418131","3158.273",6.140065538571444,19.43329750582278,0.2736520474150243,0.2761804144173282,2.4438465551173296
"LD 7949",961,"2020-07-31 00:00:00+00","31","92","1.40","12.3572711626858","1283.09",1.161990170089448,11.304087133811029,0.25562911870503596,0.25619912669974754,3.6129212571535607
"LD 7949",961,"2020-08-02 00:00:00+00","120","358","1.26","22.7087672920284","2893.343",4.3482831886820135,22.352415298956256,0.2029167343056436,0.20253652153617654,3.406242431071292
"LD 7949",961,"2020-08-03 00:00:00+00","218","687","1.46","22.1153914936711","6007.204",8.123294514684515,22.045161887174366,0.2288924663507109,0.2290484214502541,2.531619456870882
"LD 7949",961,"2020-08-04 00:00:00+00","217","777","1.45","22.8187060343619","4846.014",9.440806476032716,22.767318453204766,0.21090722341530999,0.21099364339732404,2.453460173097081
"LD 7949",961,"2020-08-05 00:00:00+00","94","312","1.61","19.6619835305866","1815.711",3.605470990142094,19.270561497704836,0.24948579100529097,0.2513977900442298,3.0623044008855036
"LD 7949",961,"2020-08-06 00:00:00+00","1","1","1.39","2.93651024784361","6.16199999999986",0.007709967432289227,2.0898352325576925,0.434028125,0.434028125,3.9707399671800454
"LD 7949",961,"2020-08-07 00:00:00+00","3","5","3.51","5.85106851826323","35.1779999999998",0.07648429522532717,4.715972396772822,0.24638582191780817,0.2460046432748538,3.543855439444182
"LD 7952",963,"2020-06-23 00:00:00+00","193","740","1.41","22.7185970785351","5471.954",12.431099921357239,22.71208299454488,0.3046850094966762,0.30441079497493845,1.8725475247625307
"LD 7952",963,"2020-06-24 00:00:00+00","218","683","1.45","21.6285857187963","3951.822",8.267948403190452,21.416898693744855,0.2606547397260274,0.26247609402918154,2.8057557381935383
"LD 7952",963,"2020-06-25 00:00:00+00","140","384","1.47","18.958348348943","2776.155",4.916532123895528,18.480889577511498,0.2786582556338028,0.27859952700060625,3.0321625030250297
"LD 7952",963,"2020-06-26 00:00:00+00","93","268","1.90","19.3965119521623","1888.968",4.886344555607319,18.572640235336277,0.2696553752436647,0.2708256064077199,3.1651672332188574
"LD 7952",963,"2020-06-29 00:00:00+00","216","639","1.30","19.5376606411339","4808.164",9.600412115361252,19.481834794773295,0.26037995745686593,0.2605930380545825,2.35323747241891
"LD 7952",963,"2020-06-30 00:00:00+00","98","341","1.47","19.0469035091268","1615.096",7.107423077988292,19.132651977439878,0.274345142396561,0.2792697294399814,2.627501375894039
"LD 7952",963,"2020-07-02 00:00:00+00","113","403","1.24","21.9393648600603","3899.76",7.746534931691645,21.313216198646725,0.3057341341898644,0.3081711085681815,2.7867608041415686
"LD 7952",963,"2020-07-03 00:00:00+00","163","522","1.64","19.0627150019429","4633.86300000001",8.408327868344251,19.185654593171815,0.29582240559809875,0.29695639095599247,2.3490845123934863
"LD 7952",963,"2020-07-04 00:00:00+00","2","2","1.94","3.70370670159658","8.82800000000003",0.008197038162021848,3.496867099737533,0.2447090476190476,0.24610140350877197,4.0
"LD 7952",963,"2020-07-06 00:00:00+00","158","561","1.45","19.7155362667271","2917.839",8.067545255574489,19.543428769277728,0.28364440227958426,0.2858172907366089,2.5111256187204902
"LD 7952",963,"2020-07-07 00:00:00+00","156","604","1.16","21.4608970123063","4223.876",9.005609125814978,18.149201638904543,0.322119482962963,0.3233373447127264,2.3386964899967393
"LD 7952",963,"2020-07-08 00:00:00+00","180","511","1.71","16.8206347773136","2656.577",8.484789364313016,17.012011731877294,0.24407938668913223,0.24998856105919487,2.1421300455347767
"LD 7952",963,"2020-07-09 00:00:00+00","174","662","1.54","22.5828376238945","2928.715",7.896600435938587,22.616671561125287,0.2606587899235268,0.26266313572932515,2.4936488624675746
"LD 7952",963,"2020-07-10 00:00:00+00","176","699","1.37","20.858693326134","3615.601",8.185750881091387,20.49285494580625,0.2736520452050371,0.27687547233715376,1.8041318314477348
"LD 7952",963,"2020-07-11 00:00:00+00","2","1","0.83","1.16666761040688","8.82599999999996",0.004962101402509754,2.032550545454545,NULL,NULL,4.0
"LD 7952",963,"2020-07-27 00:00:00+00","127","415","1.25","21.2864765889609","2446.943",8.359384650568987,20.887445363151706,0.30430224763903463,0.3065479408858409,2.6624940251537836
"LD 7952",963,"2020-07-28 00:00:00+00","169","587","1.36","21.3913131455183","3237.086",6.841666777989686,21.105026328183293,0.3161377419047619,0.3197865854655404,2.3917976237331846
"LD 7952",963,"2020-07-29 00:00:00+00","191","746","1.19","22.3728332299413","4267.473",8.992573248588185,22.297568897789425,0.31038388442437925,0.3128360057638689,2.5963666792930367
"LD 7952",963,"2020-07-30 00:00:00+00","214","647","1.34","21.2991420081899","5106.483",7.854450619336529,21.170383627962753,0.28519338128140703,0.2868571289713078,2.4016591779188268
"LD 7952",963,"2020-07-31 00:00:00+00","227","715","1.25","21.1230476197829","6180.10499999999",8.314530814088195,21.07349727854214,0.26084036466389054,0.2619538536709033,2.4644266869272777
"LD 7952",963,"2020-08-03 00:00:00+00","186","595","1.35","21.6320281391981","3182.17",11.328325240203876,21.22186525893289,0.24310489684408854,0.24542032611439038,1.9026978560381211
"LD 7952",963,"2020-08-04 00:00:00+00","213","627","1.53","19.8706615475823","3893.755",10.206404447687929,19.847433397625196,0.25779490892321877,0.2574058275329439,2.1697686678033885
"LD 7952",963,"2020-08-05 00:00:00+00","139","415","1.28","21.9211625454588","3874.342",4.9415403839287855,20.958912942965448,0.29727419575016095,0.2961199225675729,3.0110837744776053
"LD 7952",963,"2020-08-06 00:00:00+00","194","715","1.35","21.1393488576279","5181.54899999999",8.86492845597096,21.3302480009678,0.27787789651455264,0.28250694221432854,2.8117767298418324
"LD 7952",963,"2020-08-07 00:00:00+00","202","753","1.40","22.034174372289","5703.841",8.965473568050095,21.99160973789202,0.29041800433369447,0.290925200573536,2.815673363114227
"LD 7952",963,"2020-08-08 00:00:00+00","1","1","1.27","1.83333482146263","3.77299999999997",0.0036180244286840033,1.967619784019281,0.17543894736842106,0.14161254901960785,3.998949903370391
"LD 7952",963,"2020-08-10 00:00:00+00","187","523","1.70","19.4543547939914","4730.569",9.7811054827632,19.206851949029275,0.282919102340773,0.2832155423758233,2.3025884344401195
"LD 7952",963,"2020-08-11 00:00:00+00","104","308","1.35","18.8851668996728","1791.928",3.854968819774448,18.650180938222533,0.2538096575840145,0.2555960207921817,3.3879031232071526
"LD 7952",963,"2020-08-12 00:00:00+00","133","537","1.46","22.0594665551763","3251.681",8.873882554238955,21.757625802770814,0.3036560732364028,0.304956969537334,2.5918133194069957
"LD 7952",963,"2020-08-13 00:00:00+00","103","381","1.62","18.2226151988748","2920.943",4.535660651071141,18.099277847707434,0.2712114261658031,0.27398033622660023,3.250841043139804
"LD 7952",963,"2020-08-14 00:00:00+00","117","412","1.30","20.6968761958765","1995.004",5.8900039524501695,20.378290815398298,0.2991749011600928,0.2997836040652382,2.7219869511216293
"LD 7952",963,"2020-08-17 00:00:00+00","136","504","1.30","21.8812494186016","4121.93699999999",9.083309320367183,21.433481402414813,0.27394286794717887,0.27603216696475885,3.0808934394443903
"LD 7952",963,"2020-08-18 00:00:00+00","155","402","1.40","18.4392313768276","3089.381",6.2600379781002315,18.293548974502908,0.28038038165680473,0.2804245650729804,2.5383482147400507
"LD 7952",963,"2020-08-19 00:00:00+00","234","766","1.49","22.0477790793388","6310.799",9.006125138441162,22.017883476322307,0.28016093822923815,0.28044659832249313,2.8331457028772244
"LD 7952",963,"2020-08-20 00:00:00+00","88","288","1.54","19.4874046422953","2244.68",3.594795678072047,19.32195849817818,0.3121592652259332,0.31877164278421577,3.4911812775488933
"LD 7952",963,"2020-08-21 00:00:00+00","154","594","1.47","21.0662343055198","4650.793",6.880977614427048,21.20345796689162,0.2884907146757679,0.28961725373724123,2.603888382244145
"LD 7952",963,"2020-08-22 00:00:00+00","55","202","1.25","22.8995186097167","1993.876",4.654654420567213,21.452442299125305,0.28944307086614174,0.28944307086614174,3.3415836695845957
"LD 7952",963,"2020-08-24 00:00:00+00","106","369","1.45","18.3292946652854","2364.611",5.673818624277365,17.37000633352648,0.2829064679728711,0.2849233382619199,2.999887662987986
"LD 7957",964,"2020-06-23 00:00:00+00","144","408","1.61","18.7757789067071","2766.737",4.8657240598647284,18.764992287831664,0.26942803850687624,0.2704156560823198,3.091682204711828
"LD 7957",964,"2020-06-24 00:00:00+00","199","633","1.53","20.7709856374625","3037.479",7.678495953405193,20.654111812307764,0.26939757607282183,0.26959762289269523,2.8542843110413916
"LD 7957",964,"2020-06-25 00:00:00+00","259","775","1.50","21.6250291797345","5894.98599999999",9.246769850339483,21.561089804333402,0.253849980030462,0.2542318835338498,2.3890783271817218
"LD 7957",964,"2020-06-26 00:00:00+00","151","344","1.81","19.2501698499597","3062.04500000001",4.587334587093551,18.979382338404786,0.24415332450689006,0.24432430121427653,3.1551655187852217
"LD 7957",964,"2020-06-28 00:00:00+00","1","1","0.57","4.44444805383682","6.52900000000005",0.03169526789947842,4.738407891752576,0.27777813953488373,0.27777813953488373,3.988323581043623
"LD 7957",964,"2020-06-29 00:00:00+00","109","306","1.24","19.472099351794","1959.256",4.789301942550135,19.47033423309506,0.2756645753623188,0.2769454612558908,3.2125946635399663
"LD 7957",964,"2020-06-30 00:00:00+00","287","819","1.56","22.1352541215288","6979.48500000001",12.511125551095564,22.323879716757755,0.22819483420734166,0.22844993921221615,2.0812559496620477
"LD 7957",964,"2020-07-01 00:00:00+00","260","762","1.41","21.6301512181787","5892.2",9.081520632370367,20.829265661863545,0.2422623559002306,0.24222995811135883,1.9640455299911557
"LD 7957",964,"2020-07-02 00:00:00+00","154","441","1.43","19.1887367612527","3566.31",5.3935903297413255,19.2220551895191,0.2580633626685593,0.2587384594615139,2.922476200435436
"LD 7957",964,"2020-07-03 00:00:00+00","70","199","1.81","18.0007857882728","1186.143",2.8461885475098856,17.54559612832017,0.26510012615384615,0.26623962211697133,3.336083990047172
"LD 7957",964,"2020-07-05 00:00:00+00","73","277","1.07","22.9967259407043","2849.356",20.47492921533527,22.949566383747797,0.32342241784037556,0.3231998517032107,1.2143294071932051
"LD 7957",964,"2020-07-06 00:00:00+00","156","774","1.39","23.8589719519573","4448.076",8.944082972365248,23.888148796060534,0.3373533356582389,0.33744668964514635,2.6216071530351392
"LD 7957",964,"2020-07-07 00:00:00+00","157","474","1.24","20.138084320001","2742.973",6.1808487394415765,17.28376805343008,0.2513517409440176,0.2536878360442243,3.0651857825283577
"LD 7957",964,"2020-07-08 00:00:00+00","233","714","1.49","22.3086076618744","4480.363",8.463805831096089,21.899211185869227,0.2939388307788552,0.29479136589370214,2.871215282839393
"LD 7957",964,"2020-07-09 00:00:00+00","239","657","1.45","19.2531176807199","5709.784",7.665091866481044,19.195191907069518,0.26082539064436183,0.2622172559916309,2.710568066007431
"LD 7957",964,"2020-07-10 00:00:00+00","246","743","1.62","20.5266084971934","4510.85900000001",8.651716667296343,20.66549085429335,0.24318265215119317,0.24377822656593037,2.38001805523532
"LD 7957",964,"2020-07-11 00:00:00+00","50","128","1.30","16.5292590457088","1367.171",2.5008891242620956,15.848136641873905,0.254629797008547,0.2555296540312406,3.588598196998049
"LD 7957",964,"2020-07-13 00:00:00+00","227","755","1.66","21.6363476561612","6324.348",12.304296802890933,21.768733675315236,0.2669201163952226,0.26687326890511825,2.162130731543243
"LD 7957",964,"2020-07-15 00:00:00+00","263","673","1.76","19.0591944145507","5871.703",8.40278653823301,19.263139314303164,0.2522008368310598,0.2524683194811681,2.5433130530724712
"LD 7957",964,"2020-07-16 00:00:00+00","189","635","1.48","19.7784382785105","2867.773",7.325197998199497,19.431645920651334,0.3117998538390379,0.31240741748034406,2.2486698462291286
"LD 7957",964,"2020-07-17 00:00:00+00","54","152","1.66","18.7057971265243","920.268999999999",2.1078513621502184,17.53962696930344,0.2537104880866426,0.25309438482717905,3.485515123568137
"LD 7957",964,"2020-07-20 00:00:00+00","221","655","1.37","20.1871504810213","6013.821",9.186746619848492,19.99290048463331,0.25493662997147176,0.25537416614834074,2.614775773526492
"LD 7957",964,"2020-07-21 00:00:00+00","263","663","1.37","20.5545022757632","6785.703",8.816189330152568,20.750551644214948,0.2600186182846371,0.2610508301335389,2.6680015761422946
"LD 7957",964,"2020-07-22 00:00:00+00","241","701","1.40","20.5213815677641","6000.98399999999",9.546191955309101,20.51263005045618,0.24342274655559115,0.24426617324274982,2.5617384556378413
"LD 7957",964,"2020-07-23 00:00:00+00","154","638","1.20","20.6272667096755","3663.539",10.339461284518489,20.089275872064643,0.28778618258178607,0.28857438329906615,2.4986422885212476
"LD 7957",964,"2020-07-24 00:00:00+00","90","322","1.39","21.3413822302976","1844.301",5.048204113268354,20.32828634654757,0.31089546550569325,0.3112147299789775,3.2104985848252516
"LD 7957",964,"2020-07-26 00:00:00+00","172","443","1.25","22.039282674697","4189.242",17.432907148292763,21.88048320763251,0.21829077963997517,0.21803913032446456,1.7973778485147007
"LD 7957",964,"2020-07-27 00:00:00+00","99","370","1.48","17.8486439797121","2131.26",4.2705648382062895,17.468373718989188,0.2987446427118644,0.3003283615215785,2.8836646516432283
"LD 7957",964,"2020-07-28 00:00:00+00","217","582","1.37","17.9299989942516","5379.44699999999",6.761070415290899,17.75782228167115,0.2574290422838675,0.2581756599523694,2.436801046020009
"LD 7957",964,"2020-07-29 00:00:00+00","175","590","1.50","19.983339312955","4456.817",7.07354243831885,19.921539259039115,0.26852824963350785,0.2692017702401403,2.6784930506419884
"LD 7957",964,"2020-07-30 00:00:00+00","236","610","1.38","19.8844601866518","6208.042",7.463448396916436,19.850632749993338,0.24480840810758137,0.24630843085211224,2.745972842948016
"LD 7957",964,"2020-07-31 00:00:00+00","208","553","1.42","18.0636938483495","4716.041",6.454978985010252,17.749848672345607,0.2743026615990991,0.27499145370817313,2.8672887960234865
"LD 7957",964,"2020-08-01 00:00:00+00","64","137","1.39","20.8745298691676","1728.239",2.0118505798614237,20.170960325544186,0.2087150824175824,0.2094409370972165,3.6867635440088193
"LD 7957",964,"2020-08-03 00:00:00+00","69","274","1.35","20.9636887165574","1142.918",5.225637137635318,21.4409572637555,0.24991183917197454,0.2538556648713267,3.2034437402937486
"LD 7957",964,"2020-08-04 00:00:00+00","234","582","1.31","19.3585807152801","5094.461",6.875976056236473,18.890284835196823,0.24478166678093935,0.24541581765827902,2.9009024752948576
"LD 7957",964,"2020-08-05 00:00:00+00","125","571","1.29","22.3029099182911","2253.11",6.898674088680116,22.558193384539322,0.28259031943692475,0.28318172965156463,2.68072233129859
"LD 7957",964,"2020-08-06 00:00:00+00","156","724","1.30","22.0484818180214","3744.561",8.42835533715452,21.62296782927319,0.30890078429642703,0.31296237235933116,2.506404846192096
"LD 7957",964,"2020-08-07 00:00:00+00","121","453","1.49","17.4463112914213","3964.67",5.2988350245794695,17.444621844663416,0.28776102213197974,0.2894266399929684,2.9636742256935595
"LD 7957",964,"2020-08-08 00:00:00+00","1","1","1.34","3.42592869947354","4.137",0.04306033749909177,4.206503961499612,0.4513895,0.4775383333333333,3.968968356715941
"LD 7957",964,"2020-08-09 00:00:00+00","90","299","1.90","20.6123605391411","3116.86",16.66316731602582,20.192220307806405,0.2786834839310667,0.278936505949879,1.5210011893254276
"LD 7957",964,"2020-08-10 00:00:00+00","165","703","1.52","22.446300196345","3542.111",8.14595300091853,22.42605455738115,0.25113432365961635,0.25332482700029635,2.6742318146599096
"LD 7957",964,"2020-08-11 00:00:00+00","152","501","1.25","20.8728559402625","1861.166",5.784723028113337,20.68544028678372,0.2700474828017511,0.26961319686929336,2.728817757520134
"LD 7957",964,"2020-08-12 00:00:00+00","189","685","1.29","22.3370349075471","4832.973",8.171799688828989,22.235917891546727,0.24601621480502314,0.24609094263321968,2.771198641484956
"LD 7957",964,"2020-08-13 00:00:00+00","131","379","1.41","19.4538393283819","3475.698",5.533057017089765,18.772286299857647,0.24991924781341107,0.25064069756066715,2.9224131609846555
"LD 7957",964,"2020-08-14 00:00:00+00","11","44","1.58","16.8055687314934","338.383",0.9072225808403221,14.379206177538832,0.3654562290502793,0.3731490446236559,3.707634348708101
"LD 7957",964,"2020-08-16 00:00:00+00","125","310","1.31","19.9024517819185","3208.212",16.81257184407927,19.791544127401675,0.2217359508128387,0.2217695549519432,1.7049961556004734
"LD 7957",964,"2020-08-17 00:00:00+00","229","616","1.59","18.9126701476951","5466.632",7.1198445354691335,18.795522742396393,0.23832573561180076,0.23837159300720615,2.77146418309133
"LD 7957",964,"2020-08-18 00:00:00+00","153","515","1.33","18.5359683394396","5384.18999999999",6.115841366538086,17.929186908567864,0.24998108064884628,0.25090259897401307,2.577104844661194
"LD 7957",964,"2020-08-19 00:00:00+00","157","373","1.86","19.6679564793722","3221.035",4.405753164351245,19.223509666809647,0.25581093480725625,0.2569704115581854,3.129217449916699
"LD 7957",964,"2020-08-20 00:00:00+00","116","357","1.50","20.0679475889938","1822.076",4.200152444645433,20.177682420566146,0.25137627596330275,0.2530357527899899,3.0075056327280643
"LD 7957",964,"2020-08-21 00:00:00+00","72","203","1.47","19.341713788125","1566.84",3.3380348548907977,18.835905678753978,0.2444589095574086,0.24536423399779173,3.0673929764207912
"LD 7957",964,"2020-08-24 00:00:00+00","201","538","1.32","20.0140321333435","4688.98699999999",7.4024891744751615,19.43306295594522,0.2786599106008793,0.27960685000323854,2.333805447963503
"LD 7958",965,"2020-07-10 00:00:00+00","15","33","1.57","19.3303723425737","392.284",NULL,NULL,NULL,NULL,NULL
"LD 7958",965,"2020-07-13 00:00:00+00","71","231","1.56","17.7099059068428","1955.023",NULL,NULL,NULL,NULL,NULL
"LD 7958",965,"2020-07-14 00:00:00+00","178","514","1.48","19.3124908863034","3378.327",NULL,NULL,NULL,NULL,NULL
"LD 7958",965,"2020-07-15 00:00:00+00","235","666","1.63","19.3694660483445","5606.525",NULL,NULL,NULL,NULL,NULL
"LD 7958",965,"2020-07-16 00:00:00+00","172","687","1.52","21.6131112645419","5326.08899999999",NULL,NULL,NULL,NULL,NULL
"LD 7958",965,"2020-07-17 00:00:00+00","38","107","1.97","16.7505500459873","804.323000000001",NULL,NULL,NULL,NULL,NULL
"LD 7958",965,"2020-07-18 00:00:00+00","2","3","0.97","3.56209440792308","0",NULL,NULL,NULL,NULL,NULL
"LD 7958",965,"2020-07-19 00:00:00+00","227","739","1.00","23.7454490638148","3991.724",NULL,NULL,NULL,NULL,NULL
"LD 7958",965,"2020-07-20 00:00:00+00","215","495","1.57","18.4306575915911","3754.135",NULL,NULL,NULL,NULL,NULL
"LD 7958",965,"2020-07-21 00:00:00+00","207","782","1.41","21.3475123693872","3648.668",NULL,NULL,NULL,NULL,NULL
"LD 7958",965,"2020-07-22 00:00:00+00","234","773","1.17","21.772871637958","5917.98",NULL,NULL,NULL,NULL,NULL
"LD 7958",965,"2020-07-23 00:00:00+00","151","611","1.23","22.6254984178395","3186.393",NULL,NULL,NULL,NULL,NULL
"LD 7958",965,"2020-07-24 00:00:00+00","65","193","1.67","18.4445536938802","2215.347",NULL,NULL,NULL,NULL,NULL
"LD 7958",965,"2020-07-25 00:00:00+00","1","1","0.02","1.80555698275566","7.471",NULL,NULL,NULL,NULL,NULL
"LD 7958",965,"2020-07-26 00:00:00+00","189","651","1.38","22.121855447787","3318.17600000001",NULL,NULL,NULL,NULL,NULL
"LD 7958",965,"2020-07-27 00:00:00+00","232","811","1.32","23.1907511614909","5217.73399999999",NULL,NULL,NULL,NULL,NULL
"LD 7958",965,"2020-07-28 00:00:00+00","201","663","1.41","19.1558632542325","3806.377",NULL,NULL,NULL,NULL,NULL
"LD 7958",965,"2020-07-29 00:00:00+00","200","554","1.30","21.2507586626872","4663.96299999999",NULL,NULL,NULL,NULL,NULL
"LD 7958",965,"2020-07-30 00:00:00+00","145","487","1.45","19.3490110848474","5110.279",NULL,NULL,NULL,NULL,NULL
"LD 7958",965,"2020-08-05 00:00:00+00","2","1","0.09","1.20370470484098","5.65100000000007",NULL,NULL,NULL,NULL,NULL
"LD 7958",965,"2020-08-10 00:00:00+00","226","670","1.46","21.008918689013","7125.848",NULL,NULL,NULL,NULL,NULL
"LD 7958",965,"2020-08-11 00:00:00+00","281","756","1.45","21.3328310360697","6407.708",NULL,NULL,NULL,NULL,NULL
"LD 7958",965,"2020-08-12 00:00:00+00","203","632","1.44","20.4891018211535","4542.923",NULL,NULL,NULL,NULL,NULL
"LD 7958",965,"2020-08-13 00:00:00+00","123","379","1.40","18.2422330725792","2189.713",NULL,NULL,NULL,NULL,NULL
"LD 7958",965,"2020-08-14 00:00:00+00","28","63","0.73","3.3086446152793","250.087",NULL,NULL,NULL,NULL,NULL
"LD 7958",965,"2020-08-16 00:00:00+00","223","666","1.13","23.9374361648792","5117.53199999999",NULL,NULL,NULL,NULL,NULL
"LD 7960",967,"2020-06-23 00:00:00+00","274","829","1.45","22.2836698422112","3730.307",9.308681454135339,19.104890206495575,0.2602807672597865,0.26135456529063217,2.9163122925768326
"LD 7960",967,"2020-06-24 00:00:00+00","174","767","1.12","22.15209880133","4066.681",9.150775110033102,21.934297166616545,0.2646845960620525,0.2655172835519114,1.9998643333438204
"LD 7960",967,"2020-06-25 00:00:00+00","176","685","1.66","20.4065136207637","5797.31899999999",8.908150202546205,20.447216634072685,0.2758677979606355,0.2759116604890528,2.596496542184034
"LD 7960",967,"2020-06-26 00:00:00+00","55","165","1.67","17.4922547060684","588.211",1.596126286270794,13.236646689696327,0.18373836805555557,0.184064921430732,3.340527467648744
"LD 7960",967,"2020-06-27 00:00:00+00","2","1","1.53","3.58024974332915","0.156000000000006",0.04586693452871668,4.376938372401247,0.32828303030303024,0.34407211045364894,4.0
"LD 7960",967,"2020-06-28 00:00:00+00","153","455","1.21","21.974718926218","3096.835",17.091371196351687,21.933728630940156,0.2638533050556984,0.2638800529163084,1.1866075888729377
"LD 7960",967,"2020-06-29 00:00:00+00","186","530","1.50","20.4143948222239","4178.764",6.493480917595203,20.0895086297802,0.24439256103286386,0.2447503639328987,2.5919103589577066
"LD 7960",967,"2020-06-30 00:00:00+00","152","581","1.36","22.8191853096323","3989.068",6.862191860476704,22.848411867756838,0.25493064869888477,0.255206549860205,2.784082542566974
"LD 7960",967,"2020-07-01 00:00:00+00","189","564","1.64","18.6046424236968","4900.41800000001",6.6485282578845535,18.18189035213732,0.25460368169860953,0.2543701681683939,2.9352897377605487
"LD 7960",967,"2020-07-02 00:00:00+00","117","443","1.22","21.0329591166634","3556.986",5.155322444359996,19.953805787962484,0.24796995744680855,0.2490729304865336,3.394258464882144
"LD 7960",967,"2020-07-03 00:00:00+00","34","76","1.05","14.252977860977","699.981000000001",0.9518956802436724,12.728847644130607,0.2064198946515397,0.20639187537722908,3.708376265212043
"LD 7960",967,"2020-07-05 00:00:00+00","191","480","1.21","21.247610540623","4407.33",17.640200260633183,21.225113493888763,0.212616265129683,0.21246731252405698,1.6526134843624936
"LD 7960",967,"2020-07-06 00:00:00+00","135","349","1.98","17.0807788255632","3603.24",4.212809025380467,16.664778853361987,0.24914949778247097,0.24955712588510223,3.101887284257335
"LD 7960",967,"2020-07-07 00:00:00+00","222","762","1.29","22.4973706253019","2502.851",8.511060345587257,20.44810261631594,0.23404167947516405,0.2347275012632244,3.134041732026471
"LD 7960",967,"2020-07-08 00:00:00+00","117","505","1.37","21.2533948358726","2268.035",6.171922453774394,20.37900815292057,0.2787738511878081,0.2806902971534568,3.0502756660590835
"LD 7960",967,"2020-07-09 00:00:00+00","128","529","1.52","19.5397025450333","3585.10399999999",6.395640833379849,18.762910344631674,0.28308638768925287,0.28516985129547234,2.5222330214196833
"LD 7960",967,"2020-07-10 00:00:00+00","97","397","1.63","18.4802999543824","1852.577",4.997937651417117,18.408438209414562,0.26107105265875064,0.26203345172403525,2.9525584547903887
"LD 7960",967,"2020-07-17 00:00:00+00","5","22","2.13","8.79979736006485","61.6519999999999",0.7937706884790101,12.375234471965808,0.20080328915662654,0.2054473014788686,3.8485781263464443
"LD 7960",967,"2020-07-20 00:00:00+00","150","692","1.18","22.0233923557435","4980.93999999999",8.712255128998335,21.34581118526514,0.28034809750889683,0.28064759531250005,2.939910931275893
"LD 7960",967,"2020-07-21 00:00:00+00","132","540","1.29","18.8970036420091","2629.675",6.578891321781935,18.37053006607886,0.2658360962616822,0.26778323515528285,2.869729071394446
"LD 7960",967,"2020-07-22 00:00:00+00","114","391","1.39","20.219512127176","2748.882",6.495792721334712,18.043129258108163,0.2707888903052667,0.2717377768881318,2.4938515251884925
"LD 7960",967,"2020-07-23 00:00:00+00","179","482","1.34","19.0258240646001","5350.491",5.671419721469629,18.712154734353856,0.2336700446060606,0.23388914871199154,2.755922606074824
"LD 7960",967,"2020-07-24 00:00:00+00","42","94","1.60","15.1422701930261","777.806000000001",1.5325913352500866,13.884679568465193,0.26671371997586,0.26776023508557456,3.6634471739300536
"LD 7960",967,"2020-07-27 00:00:00+00","260","781","1.35","14.9516010151173","1097.123",5.454683235848089,15.093236980706056,0.2869379512064343,0.28749812266245356,2.5597266101424236
"LD 7960",967,"2020-07-28 00:00:00+00","179","485","1.27","20.8547172921566","3286.36",5.556863749171088,19.547864685056037,0.22490425824175822,0.2256153906780785,3.070893632122127
"LD 7960",967,"2020-07-29 00:00:00+00","199","592","1.55","18.7588249425501","3625.503",6.497522471497668,15.908085064246334,0.25009516777797797,0.2498015490410959,2.9963630988066488
"LD 7960",967,"2020-07-30 00:00:00+00","94","328","1.56","18.8083361369836","1237.421",4.255710010412457,18.187172022042855,0.2841995054290718,0.2853651534653087,3.3222352712524272
"LD 7960",967,"2020-07-31 00:00:00+00","64","205","1.33","19.0124670307184","912.305",10.190713891762499,13.611341470718914,0.2960840945558739,0.29939866194158077,0.34275552641274265
"LD 7960",967,"2020-08-03 00:00:00+00","178","621","1.06","20.8306389294488","2272.422",8.464207610274602,18.372853920312753,0.24944419481797314,0.253998872628258,2.4514822133345486
"LD 7960",967,"2020-08-04 00:00:00+00","167","433","1.37","21.2851701606823","3770.84",7.061456397118462,17.758815481027046,0.1988402461712989,0.1986190711474106,2.487927976592781
"LD 7960",967,"2020-08-05 00:00:00+00","197","700","1.52","19.6659947278395","2448.217",9.469239103742446,17.478984254345583,0.2799640898148148,0.28123889973567406,1.2209361098802205
"LD 7960",967,"2020-08-06 00:00:00+00","188","660","1.36","20.2948540760072","2313.242",6.171590581293321,20.641179003114573,0.2768557402489627,0.277666224168421,2.28688856652645
"LD 7960",967,"2020-08-07 00:00:00+00","130","426","1.17","20.3751839218671","1674.028",5.70933785230928,21.35100573223447,0.2551357176938369,0.25769063544865234,2.613388205023598
"LD 7960",967,"2020-08-10 00:00:00+00","300","958","1.82","18.9425142497257","2868.36",7.262554640025583,20.36506848241109,0.28066760362763404,0.2811785254819479,2.895849676654327
"LD 7960",967,"2020-08-11 00:00:00+00","174","572","1.45","20.9809578471193","4240.544",7.176200071452804,17.611859492064248,0.31606213185564086,0.3161888147781603,2.857154425564651
"LD 7960",967,"2020-08-12 00:00:00+00","149","623","1.39","23.7472210889285","3004.614",7.382841774599625,23.688395138432412,0.23953503308431162,0.24111771444116276,2.4012966511952056
"LD 7960",967,"2020-08-13 00:00:00+00","147","594","1.27","19.4177125458056","2642.743",7.021851868118807,16.155080574924103,0.286080553505535,0.2891851515896371,2.6957210536296285
"LD 7960",967,"2020-08-14 00:00:00+00","252","787","1.45","21.8803318713469","4039.50300000001",9.364984521089234,22.28439941756643,0.2188943486370158,0.21927996304337208,2.7870856094642193
"LD 7960",967,"2020-08-15 00:00:00+00","39","99","1.02","19.6855068552839","868.57",4.9655067839165135,19.123727178656427,0.2152562411575563,0.2165493100731087,1.832769574108701
"LD 7960",967,"2020-08-17 00:00:00+00","177","518","1.42","21.7109095847671","1837.109",8.966676719904756,15.23300945497007,0.24927908254716982,0.24895888595971563,2.0585001310221402
"LD 7960",967,"2020-08-18 00:00:00+00","123","337","1.11","19.9974644381882","1935.542",6.310438458545264,18.990374117815836,0.28146833623453965,0.28260318926117256,2.719772690959621
"LD 7960",967,"2020-08-19 00:00:00+00","262","692","1.55","18.8150266461377","2493.831",6.870263060649676,15.101735991488626,0.2647477589313451,0.2657575351749394,1.7769661524968496
"LD 7960",967,"2020-08-20 00:00:00+00","103","332","1.33","21.5595568597559","1315.999",4.187795188931345,17.43855837753899,0.23926485788561525,0.24066543108425328,2.847271659448825
"LD 7960",967,"2020-08-21 00:00:00+00","130","422","1.10","18.4466582881399","1109.979",3.614139503916756,13.61830842038199,0.30277301867572154,0.303451907484861,2.0546274789974692
"LD 7960",967,"2020-08-24 00:00:00+00","152","530","1.55","20.9328266015136","2677.477",10.047401489047799,19.220844749864987,0.2678730919175911,0.266859732911985,2.1317228999601125
"LD 7961",968,"2020-06-23 00:00:00+00","206","628","1.59","22.1526634770809","5157.43199999999",7.270372016514594,22.259909546153335,0.2532656620102215,0.2531955403791051,2.541985289381953
"LD 7961",968,"2020-06-24 00:00:00+00","236","640","1.21","20.5420021896561","4559.567",7.708674351510738,20.492653291460588,0.25382857261049424,0.25478982974963926,2.559838245003623
"LD 7961",968,"2020-06-25 00:00:00+00","140","386","1.13","19.0170534089997","2542.232",4.848282987951952,16.818379015637813,0.240660351884058,0.2402918020197369,2.889579502629841
"LD 7961",968,"2020-06-26 00:00:00+00","73","225","1.60","20.5203120363386","1808.291",3.267345985288078,19.531108462116972,0.2879158211678832,0.28826157478202796,3.1990132119348633
"LD 7961",968,"2020-06-28 00:00:00+00","98","370","1.11","23.8979621287067","1973.525",20.69639249070486,24.012706620091166,0.26533983368869934,0.2652482120018975,0.9978937423111621
"LD 7961",968,"2020-06-29 00:00:00+00","154","494","1.45","18.5388485576188","2778.346",5.791744297025842,18.23571413468193,0.25761363044434665,0.2582320191458395,2.9013988517549874
"LD 7961",968,"2020-06-30 00:00:00+00","223","611","1.31","20.2805666851073","4772.34599999999",7.139205104654444,20.26015418720129,0.26477495898647196,0.2647782369091434,2.7236739896515907
"LD 7961",968,"2020-07-01 00:00:00+00","170","756","1.25","22.8124055549133","5193.53",8.84028472984824,22.791920649700426,0.23683752139461173,0.23734970647048323,2.6746081532893853
"LD 7961",968,"2020-07-02 00:00:00+00","190","626","1.45","20.6076648085231","6011.211",7.256343399691719,20.671541835159434,0.2405370793113181,0.24108533595107987,2.8929263213966006
"LD 7961",968,"2020-07-03 00:00:00+00","68","241","1.19","17.3470036123557","2486.437",3.2880428442838463,17.513981112813646,0.23900401477104877,0.240710325435872,3.456862751044999
"LD 7961",968,"2020-07-04 00:00:00+00","1","1","1.39","3.64197815789117","0.462999999999965",0.06314872344707712,4.146092914726534,0.19986475609756094,0.20563298358585858,4.0
"LD 7961",968,"2020-07-06 00:00:00+00","155","588","1.13","19.3852958432096","2262.404",6.861927959290618,19.374956188984935,0.2440257680548234,0.2457567366053956,2.5087682580624424
"LD 7961",968,"2020-07-07 00:00:00+00","116","409","1.54","18.8233716779087","1848.781",4.47808806339612,17.33057601200183,0.23647813433962264,0.23912125712628512,2.3863159443916713
"LD 7961",968,"2020-07-08 00:00:00+00","166","467","1.41","18.843405709056","4120.388",5.418548561372749,18.430057376433965,0.2194516918678526,0.22055502465502302,2.6384388307508684
"LD 7961",968,"2020-07-09 00:00:00+00","235","748","1.41","20.9028633819439","5984.35700000001",8.684919510555478,20.91947285883953,0.2314171668981941,0.23115744041671563,2.5128125336551324
"LD 7961",968,"2020-07-10 00:00:00+00","142","454","1.07","21.7908934272644","3453.204",5.822465491861353,21.50025047117012,0.2491773166287016,0.24948199369115168,3.0845533777766985
"LD 7961",968,"2020-07-13 00:00:00+00","254","824","1.29","22.8678559832968","4608.97800000001",11.15896186043473,22.86424791470183,0.2311710226510067,0.23103527186612335,2.2772240076349415
"LD 7961",968,"2020-07-15 00:00:00+00","240","734","1.45","20.8357578774516","6635.982",8.564619200453414,21.080194510150825,0.24692019987132746,0.24750761868312088,2.6952587906725656
"LD 7961",968,"2020-07-16 00:00:00+00","166","606","1.51","20.6370844668426","2851.416",7.022314098054538,20.63667479804556,0.28999284635281947,0.2894184393257303,2.6406477649496214
"LD 7961",968,"2020-07-17 00:00:00+00","51","142","2.04","16.5886883347653","1158.787",2.1424326573585715,16.35007207583545,0.26981907656176607,0.2707771794540871,3.357578694901954
"LD 7961",968,"2020-07-18 00:00:00+00","2","1","1.25","2.3611130155623","12.349",0.04414114947924885,2.3712147407760424,0.27777783333333333,NULL,3.9554780166052943
"LD 7961",968,"2020-07-19 00:00:00+00","171","558","0.94","23.6485351649239","4555.027",20.349960778718877,23.491559638093467,0.20677978485370055,0.2063929364312709,1.1516786562925376
"LD 7961",968,"2020-07-20 00:00:00+00","145","445","1.58","16.7039039487991","1895.79",5.258746763373454,17.422182303941284,0.23079990381960422,0.2339717505693803,2.569158116595764
"LD 7961",968,"2020-07-21 00:00:00+00","175","739","1.40","21.0365173309908","5270.659",8.712295268555733,21.212085663715552,0.31552087885874647,0.31605695506660114,2.583839360280311
"LD 7961",968,"2020-07-22 00:00:00+00","153","701","1.21","22.3054288178596","5132.22400000001",8.411348468881972,22.333092925361793,0.3072926751202449,0.3073359789386302,2.6762704234545454
"LD 7961",968,"2020-07-23 00:00:00+00","76","337","1.50","19.5259566181147","1643.354",3.9761770178083164,19.556801156809374,0.25033615028901735,0.25080469565626623,3.3562791417718825
"LD 7961",968,"2020-07-24 00:00:00+00","35","76","1.61","15.7454773739082","795.61",1.381934735866897,13.189319974879192,0.26652619746835443,0.26934748934833896,3.468509112950636
"LD 7961",968,"2020-07-26 00:00:00+00","123","344","1.05","22.3470292505194","3080.232",18.140049279968245,22.254794985513435,0.23989138805069404,0.23996213939393943,1.6204329145641996
"LD 7961",968,"2020-07-27 00:00:00+00","221","633","1.52","20.2793874719399","5258.194",7.344619749428638,20.17318293153176,0.2397953815261044,0.23992288056458766,2.6980402059800785
"LD 7961",968,"2020-07-28 00:00:00+00","163","735","1.28","22.6238463981551","4857.811",8.533787757245532,23.11510142038721,0.30128211648351644,0.3015000401939166,2.876575318603661
"LD 7961",968,"2020-07-29 00:00:00+00","106","513","1.19","22.2744970332455","3010.897",6.10570734428346,22.22145224477471,0.2649191712214166,0.26544786679970894,3.2348655944994364
"LD 7961",968,"2020-07-30 00:00:00+00","123","448","1.40","20.8257108373195","3006.871",5.280558414368246,20.644313871879213,0.28910051580952384,0.2896234800300694,3.052666675981249
"LD 7961",968,"2020-07-31 00:00:00+00","82","271","1.03","18.9594346269804","1999.372",4.248913589620427,18.285840473421008,0.27270511747285286,0.2742955094289341,3.217793265036885
"LD 7961",968,"2020-08-02 00:00:00+00","117","319","1.12","22.584343262777","3164.782",21.104419886069223,22.396454080646965,0.22113241065171688,0.22093226755218218,1.2106603563108331
"LD 7961",968,"2020-08-03 00:00:00+00","188","694","1.23","21.8086277726204","4662.045",8.012296895109365,21.814725440839577,0.27317181599358115,0.27276967502837146,2.4179239544668825
"LD 7961",968,"2020-08-04 00:00:00+00","104","471","1.46","20.0505398856019","3017.407",6.258161241681261,19.991614883307314,0.27252055697180383,0.2736536133738852,2.893084224651179
"LD 7961",968,"2020-08-05 00:00:00+00","203","666","1.33","20.7756357654124","6313.393",10.660890845846362,20.691947547086098,0.281530729550479,0.281394239989711,2.2792391285310494
"LD 7961",968,"2020-08-06 00:00:00+00","124","425","1.44","20.1706611112442","3276.727",5.956449892872307,20.158549046270835,0.26997644715447155,0.27034767269257415,2.9728083169111876
"LD 7961",968,"2020-08-07 00:00:00+00","29","120","1.59","19.5947956924255","745.503",3.488674956989559,17.62310227301302,0.26898506474820144,0.26847868783068785,3.194696826699906
"LD 7961",968,"2020-08-10 00:00:00+00","116","541","1.59","21.8411694222909","2884.575",8.338111062238477,21.535430373491444,0.27226452173913046,0.27368189471432647,2.693684364148017
"LD 7961",968,"2020-08-11 00:00:00+00","186","733","1.35","22.698076028953","5327.10599999999",8.569494464669178,22.780106821365116,0.26083703538175046,0.2608811215466579,2.438290991988164
"LD 7961",968,"2020-08-12 00:00:00+00","159","730","1.36","21.9011466265549","5159.185",8.503631633523359,21.948921044945703,0.3163719800498753,0.3176326612782181,2.4797481065971705
"LD 7961",968,"2020-08-13 00:00:00+00","52","190","1.84","15.5259532752307","1293.745",2.258402137112357,14.550288277233301,0.28263262310030396,0.28273191691181593,3.337559398153609
"LD 7961",968,"2020-08-14 00:00:00+00","37","102","1.54","17.7023171495323","1012.181",2.0250732997943333,16.662420423700468,0.22885273724735322,0.2280555825234856,3.4568692049870187
"LD 7961",968,"2020-08-17 00:00:00+00","152","539","1.23","19.1106066982968","3559.512",6.875273275488598,18.531798850892077,0.2852538912006108,0.28558812067657086,2.569151486538318
"LD 7961",968,"2020-08-18 00:00:00+00","133","597","1.37","20.8140637417142","4345.64",7.201385261964031,20.725612956258846,0.26461811700913246,0.2649300546534606,2.9172774929794696
"LD 7961",968,"2020-08-19 00:00:00+00","107","349","1.66","18.4421461769202","2126.942",4.194167629754922,17.410670030104203,0.24323207994923857,0.2443896262356727,2.7469612980339635
"LD 7961",968,"2020-08-20 00:00:00+00","142","588","1.41","20.0881968507388","3096.825",7.176952524238023,19.974456728389736,0.2490010585077832,0.2503493376047445,1.8184432072241172
"LD 7961",968,"2020-08-21 00:00:00+00","86","240","1.51","19.2407327368949","1914.773",2.9397428259728358,17.824087646008284,0.2792837693445047,0.2794834241393423,3.4104033607432656
"LD 7961",968,"2020-08-23 00:00:00+00","129","419","1.16","22.5737684073146","2237.188",18.306985863477042,22.341021685675813,0.24905531020408164,0.2506351267669699,0.9035902298118798
"LD 7961",968,"2020-08-24 00:00:00+00","144","476","1.26","22.0178409143131","3062.26",5.527630763825559,21.79999466065867,0.2156825025466893,0.21556505727969347,2.742854421555566
"LD 7962",969,"2020-06-23 00:00:00+00","129","545","1.31","18.6681096693157","2978.461",6.361461717690871,18.467153003916497,0.27798520776312513,0.2787328716418538,2.6639633877994164
"LD 7962",969,"2020-06-24 00:00:00+00","113","486","1.40","18.7804573207786","3826.997",5.91278386921975,18.94546317183641,0.23503569487095718,0.23682060953791473,2.985652643444361
"LD 7962",969,"2020-06-25 00:00:00+00","44","175","1.61","13.9531099090549","722.058",2.105183752550181,13.644758990874331,0.27571807909604523,0.2755953546908699,3.421263612366043
"LD 7962",969,"2020-06-26 00:00:00+00","79","168","2.01","16.6823293369945","1900.001",2.912293167581956,15.008945882412146,0.21527407766990292,0.2145681170217451,3.477740020034732
"LD 7962",969,"2020-06-28 00:00:00+00","99","354","1.04","23.8571780161509","1947.63",20.19398117959277,23.767898539897065,0.18471833753148614,0.18471833753148614,1.0459308811657568
"LD 7962",969,"2020-06-29 00:00:00+00","105","393","1.38","18.6954795766607","1982.919",4.829900220413902,17.498731713307265,0.25697113764258556,0.2568814294160391,2.6809899439003555
"LD 7962",969,"2020-06-30 00:00:00+00","199","705","1.67","20.3297642148871","4917.715",8.067723864740131,19.311232074267533,0.2438716282051282,0.24388605925187498,2.7541202373328533
"LD 7962",969,"2020-07-01 00:00:00+00","252","686","1.47","19.8707268135204","5197.59",8.29592164525245,19.471806733627457,0.2197346986586057,0.2197527556974199,2.4489459812443184
"LD 7962",969,"2020-07-02 00:00:00+00","98","367","1.52","17.1624162933066","3820.302",4.444432301296767,16.696059815240606,0.21752178478137424,0.21857078251535214,3.2540338855567095
"LD 7962",969,"2020-07-03 00:00:00+00","181","777","1.38","23.1399823001508","4157.639",9.156255968727272,20.514636554954333,0.26581298492462313,0.2681853171059054,2.1887942773354556
"LD 7962",969,"2020-07-04 00:00:00+00","2","1","0.56","2.63889097049832","11.455",0.00647487976325604,3.876606621621622,0.2441078787878788,0.23596193548387098,4.0
"LD 7962",969,"2020-07-06 00:00:00+00","204","618","1.33","19.893997857285","5284.885",10.044955330119729,19.798272918415925,0.2313768017202354,0.23207811184026855,2.4965693680920844
"LD 7962",969,"2020-07-07 00:00:00+00","165","563","1.84","20.6710589072476","3942.322",7.766907183510047,20.847475006202963,0.21794062556390978,0.21849034524984187,2.2733907691017192
"LD 7962",969,"2020-07-08 00:00:00+00","185","599","1.60","18.6836726254477","2424.325",6.958871248192598,18.358406053301394,0.23817639619220304,0.2387319612928528,2.699905700271205
"LD 7962",969,"2020-07-09 00:00:00+00","151","511","1.69","18.429706946672","3804.319",6.03691209723911,18.50216307240407,0.2415883558253561,0.24150621087835134,2.557098500138303
"LD 7962",969,"2020-07-10 00:00:00+00","76","336","1.43","17.8828423340483","2369.658",4.907270168220339,18.059751800443156,0.24789499149722732,0.24835587578614277,2.740066803408127
"LD 7962",969,"2020-07-13 00:00:00+00","78","398","1.81","19.9066722964113","1578.872",6.305367211569243,19.91164991224153,0.2185422312608948,0.21832959784406378,2.2978540975137305
"LD 7962",969,"2020-07-14 00:00:00+00","136","421","1.89","17.2271895804486","3550.713",5.051140406583555,16.64008672535314,0.25331483453237413,0.25327824911549157,2.850320828430025
"LD 7962",969,"2020-07-15 00:00:00+00","158","553","1.61","18.6245690888007","3735.586",6.363487705469732,18.135627122282944,0.22358999907106364,0.22447147938096917,2.596634116144362
"LD 7962",969,"2020-07-16 00:00:00+00","199","739","1.65","21.3588502144824","2531.822",5.6296803578152295,16.288445074618558,0.26442622471910116,0.2656162982428115,2.7951127180475774
"LD 7962",969,"2020-07-17 00:00:00+00","142","646","1.58","20.5128366301189","3541.13",7.740620123407546,20.35772316442159,0.2820582227929374,0.2829645938798659,2.803612859840866
"LD 7962",969,"2020-07-18 00:00:00+00","12","50","1.68","19.9057083974282","508.318",0.8714640196625825,19.60489344995425,0.23633174603174606,0.2359332231570513,3.8616093581286077
"LD 7962",969,"2020-07-20 00:00:00+00","161","641","1.31","21.2121378675839","5328.654",10.06827583249102,20.839523909359635,0.25802227976424363,0.25834372755444784,1.9641075309103846
"LD 7962",969,"2020-07-21 00:00:00+00","112","486","1.40","19.2863291822167","2937.52700000001",5.896102302082569,18.94246664633046,0.2674769597737272,0.2681440249867092,2.535948525614256
"LD 7962",969,"2020-07-22 00:00:00+00","177","725","1.25","21.9849362818305","3590.073",9.030364401254106,21.8788996325032,0.295443640265314,0.29620478061124217,2.836614772641262
"LD 7962",969,"2020-07-23 00:00:00+00","171","652","1.61","19.5682693511015","4490.805",8.425202762399804,19.033328779745734,0.2449328825565912,0.24483611994850243,2.6377938602979816
"LD 7962",969,"2020-07-24 00:00:00+00","76","282","1.44","20.1572663399459","1677.832",3.548749232114528,19.5824262734008,0.24113773489278753,0.2411151900788388,3.2180174573385627
"LD 7962",969,"2020-07-25 00:00:00+00","1","1","1.66","3.29861371964216","1.11099999999999",0.024083745213751458,3.9603777696078435,0.23569030303030303,0.23569030303030303,4.0
"LD 7962",969,"2020-07-27 00:00:00+00","173","634","1.34","20.228714942577","3092.266",9.659042367313393,19.673209529044502,0.23804409342783506,0.2396146802287416,2.323514729140466
"LD 7962",969,"2020-07-28 00:00:00+00","152","502","1.46","20.6446192879363","3055.732",6.042579724928472,20.5425436285034,0.24850729448709002,0.24922231205006445,3.0338977682938415
"LD 7962",969,"2020-07-29 00:00:00+00","166","773","1.27","22.478965802745","4292.094",9.317791515302233,22.6123881149577,0.2556911123264619,0.2561021542550184,2.270138856494955
"LD 7962",969,"2020-07-30 00:00:00+00","118","395","1.40","19.1745816866633","3928.542",4.699212484201312,18.162802916861807,0.2325643463287849,0.23278363152499748,3.1703498929690297
"LD 7962",969,"2020-07-31 00:00:00+00","231","724","1.54","20.9262135151678","4902.07999999999",9.615232222224986,18.52550413152988,0.23317443434022256,0.23453055670820308,1.8509807052678862
"LD 7962",969,"2020-08-24 00:00:00+00","111","445","1.61","21.2623886974351","4261.9",8.473401967688012,19.406226360380114,0.22099729158316633,0.22119165401115165,3.018320205633334
"BL 820 XP",980,"2020-06-23 00:00:00+00","146","597","1.54","20.8315393572945","4878.297",7.257865969906785,20.789783588693794,0.22213501538461536,0.2229100484007452,2.6728145302308692
"BL 820 XP",980,"2020-06-24 00:00:00+00","134","450","1.59","18.8229968484501","2648.612",5.772484213265709,16.39011817115512,0.2585259773691655,0.2611913214202367,2.606468119957214
"BL 820 XP",980,"2020-06-25 00:00:00+00","210","644","1.45","21.4866803289707","4031.021",7.505339349443908,21.179894887365638,0.2264040270508674,0.226617251874015,2.5112061567276442
"BL 820 XP",980,"2020-06-26 00:00:00+00","116","378","1.53","20.0482444978119","2914.17",4.624378293307571,19.275157179461345,0.22032384051263795,0.2208010629016622,2.966765858224216
"BL 820 XP",980,"2020-06-29 00:00:00+00","148","522","1.44","20.7801807924719","4063.166",6.312912541548048,20.717185814310145,0.24502373369896405,0.24532036199673002,3.0465953456696333
"BL 820 XP",980,"2020-06-30 00:00:00+00","70","252","1.56","16.1616552637855","1273.577",3.0641230392628103,14.726920306714304,0.24598450047036688,0.24686534348195255,3.0120018155905686
"BL 820 XP",980,"2020-07-01 00:00:00+00","125","415","1.54","19.7548678619411","2673.971",4.842049781659905,18.69147024279486,0.2517985892740353,0.25237917009991995,3.0191007641503766
"BL 820 XP",980,"2020-07-02 00:00:00+00","218","670","1.53","20.9556931002389","5242.692",8.089912834630727,20.859615907995,0.2755434271671135,0.27550033560097054,2.439054446443061
"BL 820 XP",980,"2020-07-03 00:00:00+00","160","513","1.48","20.25381311567","3673.545",6.143256700294665,16.492737314042614,0.24612203297911325,0.2465138209147916,2.3593929033588106
"BL 820 XP",980,"2020-07-04 00:00:00+00","172","711","1.50","22.5030685798566","3007.448",8.518280950092796,22.78997839784065,0.3049739568965517,0.30675022838424426,2.64767892963562
"BL 820 XP",980,"2020-07-06 00:00:00+00","77","268","1.51","16.8463223949148","2900.197",3.2940999061525,16.195280343209873,0.24355147127200266,0.24363018991985552,3.417025820306603
"BL 820 XP",980,"2020-07-07 00:00:00+00","93","404","1.58","19.9512718326972","2505.11",4.815480945207943,18.692665561598034,0.2724782388157895,0.27292308399435783,2.6839891373833997
"BL 820 XP",980,"2020-07-08 00:00:00+00","126","573","1.79","20.0171432924938","2256.028",6.774970283505982,18.63724517241849,0.23901616717843738,0.24180136043259917,2.6765070888123903
"BL 820 XP",980,"2020-07-09 00:00:00+00","66","259","2.03","18.4084645635048","2530.469",3.061500740022846,17.219282116411286,0.23362849707339034,0.23359124938844752,3.2342245394812905
"BL 820 XP",980,"2020-07-10 00:00:00+00","132","502","1.52","19.2542533917179","1655.613",6.109680915477523,19.555946996018086,0.29012846208401527,0.29182346396168174,2.9202741494318434
"BL 820 XP",980,"2020-07-11 00:00:00+00","49","196","1.99","23.3726651409374","1318.978",2.29543875760612,22.82675957762144,0.22222221030927836,0.2215335041322314,3.104757367477584
"BL 820 XP",980,"2020-07-13 00:00:00+00","93","327","1.72","17.8586610252748","2588.184",3.9118518008249423,17.408655632434808,0.23899977271132933,0.24026295417634036,3.128124912739504
"BL 820 XP",980,"2020-07-14 00:00:00+00","62","221","1.87","18.5119455945193","1139.105",2.575002134007615,17.36357806037573,0.22345227938850817,0.22333280906544437,3.308296859866445
"BL 820 XP",980,"2020-07-15 00:00:00+00","211","767","1.49","22.7361678339948","5818.44000000001",9.153261841377487,22.340491187030967,0.24740440636182903,0.2484456124912704,2.463621900483791
"BL 820 XP",980,"2020-07-16 00:00:00+00","131","486","1.37","20.7683617884223","3569.22",5.877020055802318,20.512844986332077,0.23379454633360197,0.23466205836094714,2.6446954465962476
"BL 820 XP",980,"2020-07-17 00:00:00+00","218","655","1.46","20.3558895440426","4713.545",7.9768250828817795,19.664713303431185,0.2468999995606327,0.2478300038336738,1.9091626166392632
"BL 820 XP",980,"2020-07-20 00:00:00+00","175","614","1.35","21.3456927115935","4183.059",7.690655738986852,20.643114437228412,0.24048420118811883,0.24018056084656086,2.378914823925728
"BL 820 XP",980,"2020-07-21 00:00:00+00","115","400","1.56","19.0641686273295","2249.463",4.674908373810592,18.568193369943607,0.23897349543568464,0.2396038783913369,2.8949972132757806
"BL 820 XP",980,"2020-07-22 00:00:00+00","89","336","1.42","20.062865110305","1190.721",4.055815035303548,19.652807472096985,0.2528566390181972,0.2557544156465975,3.1707987085621947
"BL 820 XP",980,"2020-07-23 00:00:00+00","105","494","1.39","21.3235684994368","2588.205",5.883405644853311,21.341546225983993,0.27462946263644,0.2761722072345803,2.874067583077231
"BL 820 XP",980,"2020-07-24 00:00:00+00","141","625","1.45","19.8376333632131","4237.176",7.656703812684764,19.58164014682999,0.30682156860833537,0.3079999996985704,2.128765014257887
"BL 820 XP",980,"2020-07-27 00:00:00+00","95","367","1.29","18.5038326422185","2263.278",4.3145805532686925,17.200508541426007,0.2729380361604208,0.27542887739907534,2.6131726793410612
"BL 820 XP",980,"2020-07-28 00:00:00+00","226","663","1.32","20.7426001253493","5539.089",7.85108348322476,20.506945379667112,0.23317437429025661,0.233943847073208,2.255735912522927
"BL 820 XP",980,"2020-07-29 00:00:00+00","201","647","1.49","20.147059126455","5212.22299999999",7.759749112753266,20.199987084907495,0.23656545638629284,0.23645518591118914,2.611141648240513
"BL 820 XP",980,"2020-07-30 00:00:00+00","47","147","1.75","19.7710846384072","1097.993",1.7490670526892993,18.200066758349426,0.26846875243243246,0.2707358837257064,3.599459091700917
"BL 570 XG",981,"2020-06-23 00:00:00+00","144","520","1.51","18.9158116721153","2754.394",6.153320164465686,18.54808007052127,0.2513866422820336,0.2529859027125346,2.5430534533608764
"BL 570 XG",981,"2020-06-24 00:00:00+00","130","389","1.94","17.8568689030586","3836.684",4.838703617304349,16.32802736581894,0.2565626443999109,0.2570542974855274,2.5119245257794174
"BL 570 XG",981,"2020-06-25 00:00:00+00","177","677","1.43","19.9991085979769","5098.299",7.84291741529953,19.593289060578023,0.24705481471804921,0.24806902811379664,2.0128180258681345
"BL 570 XG",981,"2020-06-26 00:00:00+00","175","596","1.72","20.5510527594682","4108.305",7.227775719419303,19.618003253261236,0.22077038944401742,0.22133144042023717,2.6775156416673136
"BL 570 XG",981,"2020-06-27 00:00:00+00","50","171","1.32","23.0810418922637","924.81",2.0655704590718322,23.060268788159664,0.24713362989323845,0.24713362989323845,3.674553701115085
"BL 570 XG",981,"2020-06-29 00:00:00+00","128","495","1.47","17.2190776262994","2315.841",5.989637403632829,16.177367832079398,0.25117826635962387,0.2522440171598506,2.2804220850100694
"BL 570 XG",981,"2020-06-30 00:00:00+00","166","619","1.37","21.2359092641725","2993.042",7.274011900305355,20.464089556175868,0.23678857533395467,0.236810341750597,2.2117296823617854
"BL 570 XG",981,"2020-07-01 00:00:00+00","153","498","1.56","15.9462329079239","2577.589",5.986560934270145,16.126552281496057,0.23434997448979591,0.2380191973844394,1.9656013215231332
"BL 570 XG",981,"2020-07-02 00:00:00+00","94","336","1.91","17.4077266355437","1871.397",4.171283777502037,16.128637604663957,0.2672114003944773,0.26752752271814007,2.41450249787067
"BL 570 XG",981,"2020-07-03 00:00:00+00","209","746","1.53","20.3442502899573","4297.22",8.76624616551166,18.99491799745362,0.22230698705912208,0.22296827648471382,2.0263331104007762
"BL 570 XG",981,"2020-07-06 00:00:00+00","78","268","1.12","16.9271491762981","1731.003",3.3151357569723086,16.34282484377039,0.3021584086330935,0.3037058637001944,3.152581063258698
"BL 570 XG",981,"2020-07-07 00:00:00+00","184","612","1.71","19.6411938758014","3654.744",8.012197601235219,17.539550821355704,0.23044899123026813,0.23242257873385014,2.2517876510060715
"BL 570 XG",981,"2020-07-08 00:00:00+00","126","371","1.93","19.1302106419592","3252.99",4.477698812953455,17.402887267452915,0.22477983585705633,0.22521906792443516,2.687168172266793
"BL 570 XG",981,"2020-07-09 00:00:00+00","199","628","1.51","19.8498430722276","3612.051",7.6488298429619155,18.724224905993932,0.253384758210376,0.25364503283445344,2.309829596520213
"BL 570 XG",981,"2020-07-10 00:00:00+00","91","374","1.62","16.9592781691089","2177.949",4.546439241953045,16.806479503523878,0.2751980053073861,0.2760256612479289,2.78169716598476
"BL 570 XG",981,"2020-07-11 00:00:00+00","42","200","0.96","22.7627810756902","1095.57",2.3825077945296136,22.6154586376002,0.29901619718309863,0.3002294467830253,3.5325487360090566
"BL 570 XG",981,"2020-07-13 00:00:00+00","118","475","1.49","21.1884193030412","2849.749",5.845153361967551,19.12845114585026,0.2384851974459725,0.23980374837662338,2.4746651545620435
"BL 570 XG",981,"2020-07-15 00:00:00+00","123","501","1.65","16.7504706946827","3119.059",6.243976893104778,15.289989921761048,0.2551168423594343,0.2578248309925133,1.6950982223120397
"BL 570 XG",981,"2020-07-16 00:00:00+00","133","570","1.72","19.6587501951654","2818.318",6.940188240188632,19.688007393219145,0.24548898791686807,0.24691997976307997,2.4807441057193746
"BL 570 XG",981,"2020-07-17 00:00:00+00","186","553","1.77","18.7971958794222","5015.814",6.502687729938582,18.54915710801474,0.2477030719736028,0.24800152315599755,2.8628575917177077
"BL 570 XG",981,"2020-07-18 00:00:00+00","72","182","1.53","20.3968415929947","1696.242",2.172383631973146,20.493944368199546,0.21298572456575682,0.21271385876320695,3.637245354858011
"BL 570 XG",981,"2020-07-20 00:00:00+00","174","682","1.37","22.4638736996087","4478.60299999999",8.528428105042385,22.220405381790474,0.21404421172194457,0.21406946637601346,2.320426559485041
"BL 570 XG",981,"2020-07-21 00:00:00+00","122","424","1.32","17.4851034291735","2836.817",5.152322537782092,16.256188995323082,0.2529385097948836,0.25464008869722976,2.4126909101805176
"BL 570 XG",981,"2020-07-22 00:00:00+00","137","496","1.46","19.2014253173333","3118.91999999999",5.97788873141041,17.6501820370927,0.27337116426653646,0.2730949740519577,2.4319533626090295
"BL 570 XG",981,"2020-07-23 00:00:00+00","233","745","1.45","22.1763348030372","5357.159",9.003469986637239,20.512319391044322,0.19863872934472934,0.19902200566235478,2.373166922398628
"BL 570 XG",981,"2020-07-24 00:00:00+00","168","521","1.55","18.9476212235243","4104.89",6.125358806015909,18.56273614127699,0.24328784460966543,0.2438904470422003,2.851424580676093
"BL 570 XG",981,"2020-07-25 00:00:00+00","102","353","1.32","23.8028939575557","1993.22",4.248781860027728,23.027074316151747,0.2012974016686532,0.2012974016686532,3.289075487938608
"BL 570 XG",981,"2020-07-26 00:00:00+00","97","261","1.20","21.2698072428039","2832.478",3.1411241183075416,21.528254654616884,0.18978493548387101,0.19052705236853543,3.448500674077331
"BL 570 XG",981,"2020-07-27 00:00:00+00","89","285","1.58","16.5875708773938","1292.391",3.5682204176554055,13.836544829887464,0.2737351238283177,0.2749681223073663,2.6331709181978464
"BL 570 XG",981,"2020-07-28 00:00:00+00","221","665","1.49","22.0017581364193","5080.228",8.037897883550725,20.794386781556497,0.20263009937888204,0.2028610062782216,2.721466452988475
"BL 570 XG",981,"2020-07-29 00:00:00+00","148","624","1.54","21.4452449280179","4128.163",7.422532244075999,20.60056739880152,0.23902432583586627,0.23968236022365855,2.5655647401081896
"BL 570 XG",981,"2020-07-30 00:00:00+00","185","587","1.51","19.2696214701183","5625.54499999999",7.283302697759171,17.298647324286723,0.23424518076355197,0.23508417014943045,2.2563436131212167
"BL 570 XG",981,"2020-07-31 00:00:00+00","149","572","1.32","21.0046653798304","3809.341",6.835779628070467,20.148413347124084,0.2551133125739062,0.25585711508883585,2.3359672561545626
"BL 570 XG",981,"2020-08-03 00:00:00+00","185","782","1.49","22.4053437082405","5555.402",9.74243836648287,21.700943316381313,0.25332844073241245,0.2536029027308662,2.491189697308126
"BL 570 XG",981,"2020-08-04 00:00:00+00","82","341","1.21","19.03652737355","2987.027",3.982984738574445,17.42848334928648,0.27077113809320225,0.27380325711720965,3.0430359488588055
"BL 570 XG",981,"2020-08-05 00:00:00+00","117","426","1.36","19.6948656662755","2253.869",5.276115266409457,18.280833751763698,0.26971437811685894,0.2729841788014942,2.6854263287659013
"BL 570 XG",981,"2020-08-06 00:00:00+00","64","273","1.10","16.9251487486827","1978.568",3.2730063845772466,14.922839296432482,0.2946027123947052,0.29611987053985805,2.9789613984787984
"BL 570 XG",981,"2020-08-07 00:00:00+00","150","607","1.45","20.0432611703718","3896.909",7.266358159195416,19.42970071588246,0.2662812550128535,0.2672128530388862,2.3369716858839626
"BL 570 XG",981,"2020-08-10 00:00:00+00","121","443","1.41","19.4827341486907","2159.092",5.274600124240573,18.919611497941244,0.22686170920935742,0.2268369610011901,2.799667546092645
"BL 570 XG",981,"2020-08-11 00:00:00+00","125","439","1.39","21.477260478575","2515.85",5.402318900814166,19.799422957684936,0.21092792747252748,0.21172832555979137,2.4686006147120643
"BL 570 XG",981,"2020-08-12 00:00:00+00","122","489","1.41","18.6654665186766","2693.424",6.000960765649725,17.2392489906593,0.2643513546734955,0.26792920297737854,2.2796500021498454
"BL 570 XG",981,"2020-08-13 00:00:00+00","20","61","1.30","15.5669991939401","539.956",0.755789406734315,13.900242847455894,0.3086025918367347,0.3085482215473146,3.7314853195114694
"BL 570 XG",981,"2020-08-17 00:00:00+00","32","122","1.75","18.5984084677265","582.199",3.347348921638468,11.562387587755437,0.259496629059829,0.25844362683506045,1.9681381465728762
"BL 570 XG",981,"2020-08-19 00:00:00+00","193","728","1.99","4.93961750942728","15.0100000000002",0.08153849557967369,4.852063501587302,0.390625,0.390625,3.5716497036753365
"BL 570 XG",981,"2020-08-20 00:00:00+00","278","791","1.40","22.545857536031","5938.722",9.541432750324168,22.192357025133695,0.20622461003070625,0.20659772318459546,2.1408387927841654
"BL 570 XG",981,"2020-08-21 00:00:00+00","133","435","1.51","18.3258553301033","1758.372",5.425500081170865,18.250567350875013,0.24679595479894334,0.24920632647411875,2.4064467637226605
"BL 570 XG",981,"2020-08-22 00:00:00+00","83","249","1.17","21.9833740021171","1361.812",2.9668304160286585,21.78739498142223,0.19355791276595743,0.1937131137872264,3.345320268598234
"BL 570 XG",981,"2020-08-24 00:00:00+00","227","743","1.19","22.3344245667058","5362.766",9.582962687989069,21.16112721617212,0.24935514874141876,0.24915538225079675,2.0146911918136414
